EDI_BOCHG_20151125
TableName	Actflag	Created	Changed	BochgID	RelEventID	SecID	ISIN	EffectiveDate	OldOutValue	NewOutValue	EventType	OldOutDate	NewOutDate	Notes
BOCHG	I	2015/11/25	2015/11/25	1271558	1753410	360988	XS0236228317	2015/11/25	50.00000		REDEM	2005/12/07	2015/11/25	
EDI_ENDOFFILE
