EDI_CONV_20151125
TableName	Actflag	Created	Changed	ConvID	SecID	ISIN	Recdate	FromDate	ToDate	RatioNew	RatioOld	ConvCurrency	CurPair	Price	MandOptFlag	ResSecID	ResSectyCD	ResISIN	ResIssuername	ResSecurityDesc	Fractions	FXrate	PartFinalFlag	ConvType	RDID	PriceAsPercent	AmountConverted	SettlementDate	ExpTime	ExpTimeZone	Notes
EDI_ENDOFFILE
