EDI_CONVT_20151125
TableName	Actflag	Created	Changed	ConvtID	SecID	ISIN	FromDate	ToDate	RatioNew	RatioOld	CurenCD	CurPair	Price	MandOptFlag	ResSecID	ResSectyCD	ResISIN	ResIssuername	ResSecurityDesc	Fractions	FXrate	PartFinalFlag	PriceAsPercent	Notes
EDI_ENDOFFILE
