EDI_REDEM_20151125
TableName	Actflag	Created	Changed	RedemID	SecID	ISIN	Recdate	RedemDate	RedemCurrency	RedemPrice	MandOptFlag	PartFinal	RedemType	AmountRedeemed	RedemPremium	RedemPercent	PoolFactor	PriceAsPercent	PremiumAsPercent	InDefPay	TenderOpenDate	TenderCloseDate	ExpTime	ExpTimeZone	Notes
REDEM	U	2015/11/05	2015/11/25	1753410	360988	XS0236228317		2015/11/25	EUR	100000.00000	M	F	PUT					100.000000000					:		As on 04/11/2015<BR><BR>NOTICE TO THE HOLDERS OF<BR>DUCHESS V CLO B.V.<BR><BR>EUR29,500,000 Class C Notes due 2021<BR>(Regulation S ISIN: XS0236224910; Rule 144A ISIN: US26410WAA62)<BR>EUR31,500,000 Class D Notes due 2021<BR>(Regulation S ISIN: XS0236225727; Rule 144A ISIN: US26410WAB46)<BR>EUR13,750,000 Class E Notes due 2021<BR>(Regulation S ISIN: XS0236227699; Rule 144A ISIN: US26410WAC29)<BR>EUR50,000,000 Class F Secured Income Notes due 2021<BR>(Regulation S ISIN: XS0236228317; Rule 144A ISIN: US26410WAD02)<BR>EUR2,070,000 Class J Combination Notes due 2021<BR>(Regulation S ISIN: XS0236277447; Rule 144A ISIN: US26410WAG33)<BR>EUR5,600,000 Class M Combination Notes due 2021<BR>(Regulation S ISIN: XS0236279658; Rule 144A ISIN: US26410WAH16)<BR>EUR7,000,000 Class O Combination Notes due 2021<BR>(Regulation S ISIN: XS0236393194; Rule 144A ISIN: US26410WAK45)<BR>presently outstanding<BR>(the  Notes )<BR><BR>Notice is hereby given to the holders of the Notes that the Issuer has received written requests from holders representing more than 66 and two-thirds per cent. of the aggregate principal amount of Secured Income Notes Outstanding requesting redemption of the Notes pursuant to Condition 7(b)(i)(A). Subject to the satisfaction of the further conditions precedent to such redemption as set out in Condition 7(b), the<BR>Notes are redeemable by the Issuer pursuant to and in accordance with such Condition 7(b)(i)(A) on the next Payment Date, being 25 November 2015.
EDI_ENDOFFILE
