EDI_BBEC_20151125
tablename	ActFlag	Created	Changed	BbecId	SecId	BbeId	Oldexchgcd	Oldcurencd	EffectiveDate	Newexchgcd	Newcurencd	OldbbgexhId	NewbbgexhId	Oldbbgexhtk	Newbbgexhtk	ReleventId	EventType	Notes
EDI_ENDOFFILE
