EDI_EXCHG_20150818
TableName	Actflag	Created	Changed	ISIN	SecID	ExchgCD	ExchgName	CntryCD	WklyDayOff1	WklyDayOff2	MIC	ExchgID
EXCHG	I	2006/10/17	2006/10/17	ES0312378013	1437557	ESAIAF	AIAF - Fixed Income Market	ES			XDRF	193
EXCHG	I	2006/10/17	2006/10/17	ES0345671053	640782	ESAIAF	AIAF - Fixed Income Market	ES			XDRF	193
EXCHG	U	2001/10/14	2003/12/17	ES0345671053	640782	ESMSE	Madrid Stock Exchange	ES	SAT	SUN	XMAD	125
EXCHG	I	2006/10/17	2006/10/17	ES0377952025	423001	ESAIAF	AIAF - Fixed Income Market	ES			XDRF	193
EXCHG	U	2001/10/14	2003/12/17	ES0377952025	423001	ESMSE	Madrid Stock Exchange	ES	SAT	SUN	XMAD	125
EXCHG	I	2004/12/04	2004/10/04	KYG4425Q1047	2243998	KYBND	Cayman Island Unlisted Bond	KY				180
EXCHG	I	2008/02/19	2008/02/19	USG16160AL09	2035118	USBND	USA Unlisted Bond	US				199
EXCHG	U	2001/03/16	2003/12/17	USG16374AB94	400650	IEISE	Irish Stock Exchange	IE	SAT	SUN	XDUB	61
EXCHG	U	2001/03/16	2003/12/17	USG36592AB23	643767	IEISE	Irish Stock Exchange	IE	SAT	SUN	XDUB	61
EXCHG	U	2003/07/05	2003/12/17	USG39165AA66	2723292	KYSX	Cayman Islands Stock Exchange	KY			XCAY	153
EXCHG	U	2003/07/05	2003/12/17	USG5387WAD68	420976	KYSX	Cayman Islands Stock Exchange	KY			XCAY	153
EXCHG	U	2001/03/16	2003/12/17	USG7456CAC40	418578	IEISE	Irish Stock Exchange	IE	SAT	SUN	XDUB	61
EXCHG	U	2001/03/16	2003/12/17	USG8993BAA82	834226	IEISE	Irish Stock Exchange	IE	SAT	SUN	XDUB	61
EXCHG	U	2001/03/16	2003/12/17	USG9330QAB35	2035826	IEISE	Irish Stock Exchange	IE	SAT	SUN	XDUB	61
EXCHG	I	2001/04/03	2001/04/03	XS0095906177	485319	DEFSX	Frankfurt Stock Exchange	DE	SAT	SUN	XFRA	75
EXCHG	I	2001/04/03	2001/04/03	XS0137994660	489729	DEFSX	Frankfurt Stock Exchange	DE	SAT	SUN	XFRA	75
EXCHG	U	2001/03/16	2003/12/17	XS0137994660	489729	IEISE	Irish Stock Exchange	IE	SAT	SUN	XDUB	61
EXCHG	I	2001/04/03	2001/04/03	XS0137996954	484144	DEFSX	Frankfurt Stock Exchange	DE	SAT	SUN	XFRA	75
EXCHG	U	2001/03/16	2003/12/17	XS0137996954	484144	IEISE	Irish Stock Exchange	IE	SAT	SUN	XDUB	61
EXCHG	I	2001/04/03	2001/04/03	XS0145222120	226087	DEFSX	Frankfurt Stock Exchange	DE	SAT	SUN	XFRA	75
EXCHG	U	2001/09/29	2003/12/17	XS0145222120	226087	LULSE	Luxembourg Stock Exchange	LU	SAT	SUN	XLUX	120
EXCHG	I	2001/04/03	2001/04/03	XS0150230158	481508	DEFSX	Frankfurt Stock Exchange	DE	SAT	SUN	XFRA	75
EXCHG	U	2001/03/16	2003/12/17	XS0150230158	481508	IEISE	Irish Stock Exchange	IE	SAT	SUN	XDUB	61
EXCHG	U	2001/03/16	2003/12/17	XS0188618101	300876	IEISE	Irish Stock Exchange	IE	SAT	SUN	XDUB	61
EXCHG	U	2001/03/16	2003/12/17	XS0188618523	300882	IEISE	Irish Stock Exchange	IE	SAT	SUN	XDUB	61
EXCHG	I	2001/04/03	2001/04/03	XS0196449366	487696	DEFSX	Frankfurt Stock Exchange	DE	SAT	SUN	XFRA	75
EXCHG	U	2001/03/16	2003/12/17	XS0196449366	487696	IEISE	Irish Stock Exchange	IE	SAT	SUN	XDUB	61
EXCHG	I	2007/07/25	2007/07/25	XS0196449366	487696	XSBND	XS Unlisted Bond	XS				194
EXCHG	U	2001/09/29	2003/12/17	XS0202219092	190565	LULSE	Luxembourg Stock Exchange	LU	SAT	SUN	XLUX	120
EXCHG	I	2001/04/03	2001/04/03	XS0204563703	479718	DEFSX	Frankfurt Stock Exchange	DE	SAT	SUN	XFRA	75
EXCHG	U	2001/03/16	2003/12/17	XS0204563703	479718	IEISE	Irish Stock Exchange	IE	SAT	SUN	XDUB	61
EXCHG	I	2007/07/25	2007/07/25	XS0204563703	479718	XSBND	XS Unlisted Bond	XS				194
EXCHG	I	2001/04/03	2001/04/03	XS0204594682	475992	DEFSX	Frankfurt Stock Exchange	DE	SAT	SUN	XFRA	75
EXCHG	U	2001/03/16	2003/12/17	XS0204594682	475992	IEISE	Irish Stock Exchange	IE	SAT	SUN	XDUB	61
EXCHG	I	2007/07/25	2007/07/25	XS0204594682	475992	XSBND	XS Unlisted Bond	XS				194
EXCHG	I	2001/04/03	2001/04/03	XS0214987264	240544	DEFSX	Frankfurt Stock Exchange	DE	SAT	SUN	XFRA	75
EXCHG	U	2001/09/29	2003/12/17	XS0214987264	240544	LULSE	Luxembourg Stock Exchange	LU	SAT	SUN	XLUX	120
EXCHG	U	2001/03/16	2003/12/17	XS0216228857	336463	IEISE	Irish Stock Exchange	IE	SAT	SUN	XDUB	61
EXCHG	U	2001/09/29	2003/12/17	XS0216426063	236889	LULSE	Luxembourg Stock Exchange	LU	SAT	SUN	XLUX	120
EXCHG	U	2001/09/29	2003/12/17	XS0216427384	236894	LULSE	Luxembourg Stock Exchange	LU	SAT	SUN	XLUX	120
EXCHG	I	2001/04/03	2001/04/03	XS0220312440	479765	DEFSX	Frankfurt Stock Exchange	DE	SAT	SUN	XFRA	75
EXCHG	U	2001/03/16	2003/12/17	XS0220312440	479765	IEISE	Irish Stock Exchange	IE	SAT	SUN	XDUB	61
EXCHG	I	2007/07/25	2007/07/25	XS0220312440	479765	XSBND	XS Unlisted Bond	XS				194
EXCHG	U	2001/09/29	2003/12/17	XS0223493841	401527	LULSE	Luxembourg Stock Exchange	LU	SAT	SUN	XLUX	120
EXCHG	U	2001/09/29	2003/12/17	XS0223494575	401529	LULSE	Luxembourg Stock Exchange	LU	SAT	SUN	XLUX	120
EXCHG	U	2001/09/29	2003/12/17	XS0223497248	401542	LULSE	Luxembourg Stock Exchange	LU	SAT	SUN	XLUX	120
EXCHG	U	2001/03/16	2003/12/17	XS0225547438	362124	IEISE	Irish Stock Exchange	IE	SAT	SUN	XDUB	61
EXCHG	U	2001/03/16	2003/12/17	XS0226406238	329197	IEISE	Irish Stock Exchange	IE	SAT	SUN	XDUB	61
EXCHG	I	2001/04/03	2001/04/03	XS0229693071	485414	DEFSX	Frankfurt Stock Exchange	DE	SAT	SUN	XFRA	75
EXCHG	U	2001/03/16	2003/12/17	XS0229693071	485414	IEISE	Irish Stock Exchange	IE	SAT	SUN	XDUB	61
EXCHG	I	2007/07/25	2007/07/25	XS0229693071	485414	XSBND	XS Unlisted Bond	XS				194
EXCHG	U	2001/03/16	2003/12/17	XS0229693824	288587	IEISE	Irish Stock Exchange	IE	SAT	SUN	XDUB	61
EXCHG	U	2001/03/16	2003/12/17	XS0235146569	358841	IEISE	Irish Stock Exchange	IE	SAT	SUN	XDUB	61
EXCHG	U	2001/03/16	2003/12/17	XS0235683736	336432	IEISE	Irish Stock Exchange	IE	SAT	SUN	XDUB	61
EXCHG	U	2001/03/16	2003/12/17	XS0235684114	309954	IEISE	Irish Stock Exchange	IE	SAT	SUN	XDUB	61
EXCHG	U	2001/03/16	2003/12/17	XS0236228317	360988	IEISE	Irish Stock Exchange	IE	SAT	SUN	XDUB	61
EXCHG	I	2001/04/03	2001/04/03	XS0237059158	481631	DEFSX	Frankfurt Stock Exchange	DE	SAT	SUN	XFRA	75
EXCHG	U	2001/03/16	2003/12/17	XS0237059158	481631	IEISE	Irish Stock Exchange	IE	SAT	SUN	XDUB	61
EXCHG	I	2007/07/25	2007/07/25	XS0237059158	481631	XSBND	XS Unlisted Bond	XS				194
EXCHG	I	2001/04/03	2001/04/03	XS0237518955	478872	DEFSX	Frankfurt Stock Exchange	DE	SAT	SUN	XFRA	75
EXCHG	U	2001/03/16	2003/12/17	XS0237518955	478872	IEISE	Irish Stock Exchange	IE	SAT	SUN	XDUB	61
EXCHG	I	2007/07/25	2007/07/25	XS0237518955	478872	XSBND	XS Unlisted Bond	XS				194
EXCHG	U	2001/03/16	2003/12/17	XS0241540763	328170	IEISE	Irish Stock Exchange	IE	SAT	SUN	XDUB	61
EXCHG	U	2001/03/16	2003/12/17	XS0241544161	332587	IEISE	Irish Stock Exchange	IE	SAT	SUN	XDUB	61
EXCHG	U	2001/03/16	2003/12/17	XS0243997706	843115	IEISE	Irish Stock Exchange	IE	SAT	SUN	XDUB	61
EXCHG	I	2001/04/03	2001/04/03	XS0244000187	490447	DEFSX	Frankfurt Stock Exchange	DE	SAT	SUN	XFRA	75
EXCHG	U	2001/03/16	2003/12/17	XS0244000187	490447	IEISE	Irish Stock Exchange	IE	SAT	SUN	XDUB	61
EXCHG	I	2007/07/25	2007/07/25	XS0244000187	490447	XSBND	XS Unlisted Bond	XS				194
EXCHG	U	2001/03/16	2003/12/17	XS0244742911	384548	IEISE	Irish Stock Exchange	IE	SAT	SUN	XDUB	61
EXCHG	U	2001/03/16	2003/12/17	XS0244743489	384561	IEISE	Irish Stock Exchange	IE	SAT	SUN	XDUB	61
EXCHG	U	2001/03/16	2003/12/17	XS0247402422	357710	IEISE	Irish Stock Exchange	IE	SAT	SUN	XDUB	61
EXCHG	U	2001/03/16	2003/12/17	XS0247409948	357715	IEISE	Irish Stock Exchange	IE	SAT	SUN	XDUB	61
EXCHG	U	2001/03/16	2003/12/17	XS0247515207	365009	IEISE	Irish Stock Exchange	IE	SAT	SUN	XDUB	61
EXCHG	U	2001/03/16	2003/12/17	XS0247636334	365974	IEISE	Irish Stock Exchange	IE	SAT	SUN	XDUB	61
EXCHG	U	2001/03/16	2003/12/17	XS0247638975	357559	IEISE	Irish Stock Exchange	IE	SAT	SUN	XDUB	61
EXCHG	I	2003/12/13	2003/12/13	XS0247638975	357559	LUUL	Luxembourg Unlisted	LU				157
EXCHG	I	2007/07/25	2007/07/25	XS0247638975	357559	XSBND	XS Unlisted Bond	XS				194
EXCHG	U	2001/03/16	2003/12/17	XS0248144163	364553	IEISE	Irish Stock Exchange	IE	SAT	SUN	XDUB	61
EXCHG	U	2001/03/16	2003/12/17	XS0248144759	364563	IEISE	Irish Stock Exchange	IE	SAT	SUN	XDUB	61
EXCHG	U	2001/03/16	2003/12/17	XS0251292883	363178	IEISE	Irish Stock Exchange	IE	SAT	SUN	XDUB	61
EXCHG	I	2007/07/25	2007/07/25	XS0251292883	363178	XSBND	XS Unlisted Bond	XS				194
EXCHG	U	2001/03/16	2003/12/17	XS0251752639	419838	IEISE	Irish Stock Exchange	IE	SAT	SUN	XDUB	61
EXCHG	U	2001/03/16	2003/12/17	XS0253796329	384572	IEISE	Irish Stock Exchange	IE	SAT	SUN	XDUB	61
EXCHG	I	2001/04/03	2001/04/03	XS0254054553	491020	DEFSX	Frankfurt Stock Exchange	DE	SAT	SUN	XFRA	75
EXCHG	U	2001/03/16	2003/12/17	XS0254054553	491020	IEISE	Irish Stock Exchange	IE	SAT	SUN	XDUB	61
EXCHG	I	2007/07/25	2007/07/25	XS0254054553	491020	XSBND	XS Unlisted Bond	XS				194
EXCHG	I	2001/04/03	2001/04/03	XS0254058034	484139	DEFSX	Frankfurt Stock Exchange	DE	SAT	SUN	XFRA	75
EXCHG	I	2007/07/25	2007/07/25	XS0254058034	484139	XSBND	XS Unlisted Bond	XS				194
EXCHG	U	2001/03/16	2003/12/17	XS0256419903	388182	IEISE	Irish Stock Exchange	IE	SAT	SUN	XDUB	61
EXCHG	U	2001/03/16	2003/12/17	XS0256541532	428392	IEISE	Irish Stock Exchange	IE	SAT	SUN	XDUB	61
EXCHG	U	2001/03/16	2003/12/17	XS0259368925	421644	IEISE	Irish Stock Exchange	IE	SAT	SUN	XDUB	61
EXCHG	U	2001/03/16	2003/12/17	XS0260354732	401271	IEISE	Irish Stock Exchange	IE	SAT	SUN	XDUB	61
EXCHG	U	2001/03/16	2003/12/17	XS0261227325	552958	IEISE	Irish Stock Exchange	IE	SAT	SUN	XDUB	61
EXCHG	I	2007/07/25	2007/07/25	XS0261227325	552958	XSBND	XS Unlisted Bond	XS				194
EXCHG	U	2001/03/16	2003/12/17	XS0261629801	405753	IEISE	Irish Stock Exchange	IE	SAT	SUN	XDUB	61
EXCHG	U	2001/03/16	2003/12/17	XS0262684862	421668	IEISE	Irish Stock Exchange	IE	SAT	SUN	XDUB	61
EXCHG	U	2001/03/16	2003/12/17	XS0268029468	418689	IEISE	Irish Stock Exchange	IE	SAT	SUN	XDUB	61
EXCHG	U	2001/03/16	2003/12/17	XS0268642161	439931	IEISE	Irish Stock Exchange	IE	SAT	SUN	XDUB	61
EXCHG	I	2007/07/25	2007/07/25	XS0268642161	439931	XSBND	XS Unlisted Bond	XS				194
EXCHG	U	2001/03/16	2003/12/17	XS0268819868	453369	IEISE	Irish Stock Exchange	IE	SAT	SUN	XDUB	61
EXCHG	U	2001/03/16	2003/12/17	XS0269248984	451640	IEISE	Irish Stock Exchange	IE	SAT	SUN	XDUB	61
EXCHG	U	2001/03/16	2003/12/17	XS0269581996	466701	IEISE	Irish Stock Exchange	IE	SAT	SUN	XDUB	61
EXCHG	U	2001/03/16	2003/12/17	XS0272301648	486954	IEISE	Irish Stock Exchange	IE	SAT	SUN	XDUB	61
EXCHG	U	2001/03/16	2003/12/17	XS0272302299	486943	IEISE	Irish Stock Exchange	IE	SAT	SUN	XDUB	61
EXCHG	U	2001/03/16	2003/12/17	XS0272582395	486736	IEISE	Irish Stock Exchange	IE	SAT	SUN	XDUB	61
EXCHG	U	2001/03/16	2003/12/17	XS0273475763	529854	IEISE	Irish Stock Exchange	IE	SAT	SUN	XDUB	61
EXCHG	U	2001/09/29	2003/12/17	XS0273893502	486993	LULSE	Luxembourg Stock Exchange	LU	SAT	SUN	XLUX	120
EXCHG	U	2001/09/29	2003/12/17	XS0273894732	472748	LULSE	Luxembourg Stock Exchange	LU	SAT	SUN	XLUX	120
EXCHG	U	2001/03/16	2003/12/17	XS0274446441	446549	IEISE	Irish Stock Exchange	IE	SAT	SUN	XDUB	61
EXCHG	U	2001/03/16	2003/12/17	XS0277024658	568361	IEISE	Irish Stock Exchange	IE	SAT	SUN	XDUB	61
EXCHG	U	2001/03/16	2003/12/17	XS0277789094	533761	IEISE	Irish Stock Exchange	IE	SAT	SUN	XDUB	61
EXCHG	U	2001/03/16	2003/12/17	XS0278170765	524385	IEISE	Irish Stock Exchange	IE	SAT	SUN	XDUB	61
EXCHG	U	2001/03/16	2003/12/17	XS0278172977	524394	IEISE	Irish Stock Exchange	IE	SAT	SUN	XDUB	61
EXCHG	U	2001/03/16	2003/12/17	XS0278469803	498872	IEISE	Irish Stock Exchange	IE	SAT	SUN	XDUB	61
EXCHG	U	2001/03/16	2003/12/17	XS0279707961	481448	IEISE	Irish Stock Exchange	IE	SAT	SUN	XDUB	61
EXCHG	U	2001/03/16	2003/12/17	XS0282504280	1436899	IEISE	Irish Stock Exchange	IE	SAT	SUN	XDUB	61
EXCHG	U	2001/03/16	2003/12/17	XS0282509164	1437292	IEISE	Irish Stock Exchange	IE	SAT	SUN	XDUB	61
EXCHG	U	2001/03/16	2003/12/17	XS0287420888	562956	IEISE	Irish Stock Exchange	IE	SAT	SUN	XDUB	61
EXCHG	U	2001/03/16	2003/12/17	XS0289322439	621133	IEISE	Irish Stock Exchange	IE	SAT	SUN	XDUB	61
EXCHG	I	2007/07/25	2007/07/25	XS0290091049	1540419	XSBND	XS Unlisted Bond	XS				194
EXCHG	I	2007/07/25	2007/07/25	XS0290092443	1540455	XSBND	XS Unlisted Bond	XS				194
EXCHG	U	2001/03/16	2003/12/17	XS0290390110	581568	IEISE	Irish Stock Exchange	IE	SAT	SUN	XDUB	61
EXCHG	U	2001/03/16	2003/12/17	XS0291367182	570591	IEISE	Irish Stock Exchange	IE	SAT	SUN	XDUB	61
EXCHG	U	2001/03/16	2003/12/17	XS0291724473	561082	IEISE	Irish Stock Exchange	IE	SAT	SUN	XDUB	61
EXCHG	U	2001/03/16	2003/12/17	XS0292636395	582686	IEISE	Irish Stock Exchange	IE	SAT	SUN	XDUB	61
EXCHG	U	2001/03/16	2003/12/17	XS0292715009	574757	IEISE	Irish Stock Exchange	IE	SAT	SUN	XDUB	61
EXCHG	I	2007/07/25	2007/07/25	XS0292715009	574757	XSBND	XS Unlisted Bond	XS				194
EXCHG	U	2001/03/16	2003/12/17	XS0292918884	585326	IEISE	Irish Stock Exchange	IE	SAT	SUN	XDUB	61
EXCHG	U	2001/03/16	2003/12/17	XS0294336820	589450	IEISE	Irish Stock Exchange	IE	SAT	SUN	XDUB	61
EXCHG	I	2007/07/25	2007/07/25	XS0294336820	589450	XSBND	XS Unlisted Bond	XS				194
EXCHG	U	2001/03/16	2003/12/17	XS0294337984	589453	IEISE	Irish Stock Exchange	IE	SAT	SUN	XDUB	61
EXCHG	U	2001/03/16	2003/12/17	XS0294790547	596931	IEISE	Irish Stock Exchange	IE	SAT	SUN	XDUB	61
EXCHG	I	2007/07/25	2007/07/25	XS0294790547	596931	XSBND	XS Unlisted Bond	XS				194
EXCHG	U	2001/03/16	2003/12/17	XS0296313017	591314	IEISE	Irish Stock Exchange	IE	SAT	SUN	XDUB	61
EXCHG	I	2007/07/25	2007/07/25	XS0296313017	591314	XSBND	XS Unlisted Bond	XS				194
EXCHG	U	2001/03/16	2003/12/17	XS0297939307	593196	IEISE	Irish Stock Exchange	IE	SAT	SUN	XDUB	61
EXCHG	I	2007/07/25	2007/07/25	XS0297939307	593196	XSBND	XS Unlisted Bond	XS				194
EXCHG	U	2001/03/16	2003/12/17	XS0297940149	593195	IEISE	Irish Stock Exchange	IE	SAT	SUN	XDUB	61
EXCHG	U	2001/03/16	2003/12/17	XS0298497495	593644	IEISE	Irish Stock Exchange	IE	SAT	SUN	XDUB	61
EXCHG	I	2007/07/25	2007/07/25	XS0298497495	593644	XSBND	XS Unlisted Bond	XS				194
EXCHG	U	2001/03/16	2003/12/17	XS0298609719	593208	IEISE	Irish Stock Exchange	IE	SAT	SUN	XDUB	61
EXCHG	I	2007/07/25	2007/07/25	XS0299446442	597045	XSBND	XS Unlisted Bond	XS				194
EXCHG	I	2007/07/25	2007/07/25	XS0304541625	1163135	XSBND	XS Unlisted Bond	XS				194
EXCHG	U	2001/03/16	2003/12/17	XS0305646183	602535	IEISE	Irish Stock Exchange	IE	SAT	SUN	XDUB	61
EXCHG	U	2001/03/16	2003/12/17	XS0308771012	636802	IEISE	Irish Stock Exchange	IE	SAT	SUN	XDUB	61
EXCHG	U	2001/03/16	2003/12/17	XS0309841376	643842	IEISE	Irish Stock Exchange	IE	SAT	SUN	XDUB	61
EXCHG	U	2001/03/16	2003/12/17	XS0311179922	641946	IEISE	Irish Stock Exchange	IE	SAT	SUN	XDUB	61
EXCHG	I	2007/07/25	2007/07/25	XS0311179922	641946	XSBND	XS Unlisted Bond	XS				194
EXCHG	U	2001/03/16	2003/12/17	XS0311203813	636318	IEISE	Irish Stock Exchange	IE	SAT	SUN	XDUB	61
EXCHG	I	2007/07/25	2007/07/25	XS0311203813	636318	XSBND	XS Unlisted Bond	XS				194
EXCHG	U	2001/03/16	2003/12/17	XS0313392432	630103	IEISE	Irish Stock Exchange	IE	SAT	SUN	XDUB	61
EXCHG	U	2001/03/16	2003/12/17	XS0322031245	712497	IEISE	Irish Stock Exchange	IE	SAT	SUN	XDUB	61
EXCHG	I	2007/07/25	2007/07/25	XS0322031245	712497	XSBND	XS Unlisted Bond	XS				194
EXCHG	U	2001/03/16	2003/12/17	XS0322039149	712505	IEISE	Irish Stock Exchange	IE	SAT	SUN	XDUB	61
EXCHG	I	2007/07/25	2007/07/25	XS0322039149	712505	XSBND	XS Unlisted Bond	XS				194
EXCHG	U	2001/09/29	2003/12/17	XS0331163906	736146	LULSE	Luxembourg Stock Exchange	LU	SAT	SUN	XLUX	120
EXCHG	I	2007/07/25	2007/07/25	XS0331163906	736146	XSBND	XS Unlisted Bond	XS				194
EXCHG	I	2007/07/25	2007/07/25	XS0338507196	745632	XSBND	XS Unlisted Bond	XS				194
EXCHG	U	2001/09/29	2003/12/17	XS0364968866	844122	LULSE	Luxembourg Stock Exchange	LU	SAT	SUN	XLUX	120
EXCHG	U	2001/03/16	2003/12/17	XS0941553041	4326116	IEISE	Irish Stock Exchange	IE	SAT	SUN	XDUB	61
EXCHG	U	2001/03/16	2003/12/17	XS0972510530	4120684	IEISE	Irish Stock Exchange	IE	SAT	SUN	XDUB	61
EXCHG	U	2001/03/16	2003/12/17	XS1067654217	4283980	IEISE	Irish Stock Exchange	IE	SAT	SUN	XDUB	61
EXCHG	I	2007/07/25	2007/07/25	XS1075043890	4295411	XSBND	XS Unlisted Bond	XS				194
EXCHG	U	2001/03/16	2003/12/17	XS1075043890	4295411	IEISE	Irish Stock Exchange	IE	SAT	SUN	XDUB	61
EDI_ENDOFFILE
