EDI_BSCHG_20150818
TableName	Actflag	Created	Changed	BschgID	SecID	ISIN	NotificationDate	OldBondType	NewBondType	OldCurenCD	NewCurenCD	OldPIU	NewPIU	OldInterestBasis	NewInterestBasis	Eventtype	OldInterestCurrency	NewInterestCurrency	OldMaturityCurrency	NewMaturityCurrency	OldIntBusDayConv	NewIntBusDayConv	OldMatBusDayConv	NewMatBusDayConv	Notes
BSCHG	I	2006/01/21	2006/01/21	884	190565	XS0202219092	2006/01/19	BD	NT	EUR	EUR			FR	FR	CORR									
BSCHG	I	2007/01/23	2007/01/23	3177	472748	XS0273894732	2006/11/22	BD	NT	EUR	EUR			FXD	FXD	CLEAN									
BSCHG	I	2007/03/05	2007/03/05	3816	529854	XS0273475763	2006/11/30	BD	NT	EUR	EUR			FR	FR	CLEAN									
BSCHG	I	2007/04/02	2007/04/02	4207	533761	XS0277789094	2006/12/13	BD	NT	EUR	EUR			FR	FR	CORR									
BSCHG	I	2007/04/03	2007/04/03	4265	524394	XS0278172977	2007/02/01	NT	BD	EUR	EUR			FR	FR	CORR									
BSCHG	I	2007/04/03	2007/04/03	4269	498872	XS0278469803	2007/01/27	NT	BD	EUR	EUR			FR	FR	CORR									
BSCHG	I	2007/04/04	2007/04/04	4294	481448	XS0279707961	2006/12/21	NT	BD	EUR	EUR			FR	FR	CORR									
BSCHG	I	2007/05/11	2007/05/11	4876	570591	XS0291367182	2007/03/27	NT	BD	EUR	EUR			FR	FR	CORR									
BSCHG	I	2007/05/23	2007/05/23	5007	561082	XS0291724473	2007/04/04	BD	NT	EUR	EUR			FR	FR	CLEAN									
BSCHG	I	2007/06/11	2007/06/11	5339	582686	XS0292636395	2007/05/08	NT	BD	EUR	EUR			FR	FR	CORR									
BSCHG	I	2007/06/13	2007/06/13	5449	597045	XS0299446442	2007/05/18	NT	BD	GBP	GBP			FR	FR	CORR									
BSCHG	I	2007/08/04	2007/08/04	6170	486736	XS0272582395	2006/11/17	NT	BD	EUR	EUR			FR	FR	CORR	EUR	EUR	EUR	EUR					
BSCHG	I	2007/09/05	2007/09/05	6517	589450	XS0294336820	2007/04/24	NT	BD	EUR	EUR			FR	FR	CLEAN		EUR		EUR					
BSCHG	I	2007/09/05	2007/09/05	6518	589453	XS0294337984	2007/04/24	NT	BD	EUR	EUR			FR	FR	CLEAN		EUR		EUR					
BSCHG	I	2008/02/21	2008/02/21	8407	591314	XS0296313017	2007/05/09	BD	NT	EUR	EUR			FR	FR	CORR	EUR	EUR	EUR	EUR					
BSCHG	I	2009/02/13	2009/02/13	13042	712497	XS0322031245	2007/10/20	BD	NT	EUR	EUR			FR	FR	CORR	EUR	EUR	EUR	EUR					
BSCHG	I	2009/06/06	2009/06/06	17596	240544	XS0214987264	2005/04/28	BD	NT	EUR	EUR			FR	FR	CORR	EUR	EUR	EUR	EUR					
BSCHG	I	2009/06/15	2009/06/15	18587	478872	XS0237518955	2005/12/16	BD	NT	EUR	EUR			FR	FR	CORR	EUR	EUR	EUR	EUR	FBD	FBD	FBD	FBD	
BSCHG	I	2009/06/17	2009/06/17	18920	481448	XS0279707961	2006/12/22	BD	NT	EUR	EUR			FR	FR	CORR	EUR	EUR				FBD		FBD	
BSCHG	I	2009/06/17	2009/06/17	18932	491020	XS0254054553	2006/06/30	BD	NT	EUR	EUR			FR	FR	CORR	EUR	EUR	EUR	EUR	MFBD	MFBD	FBD	FBD	
BSCHG	I	2009/06/18	2009/06/18	18974	484139	XS0254058034	2006/06/30	BD	NT	EUR	EUR			AFB	AFB	CORR	EUR	EUR	EUR	EUR	MFBD	MFBD	FBD	FBD	
BSCHG	I	2009/06/20	2009/06/20	19035	384548	XS0244742911	2006/05/19	NT	BD	EUR	EUR			FR	FR	CORR									
BSCHG	I	2009/06/23	2009/06/23	19206	485414	XS0229693071	2005/09/23	BD	NT	EUR	EUR			FR	FR	CORR	EUR	EUR	EUR	EUR					
BSCHG	I	2009/06/24	2009/06/24	19348	636802	XS0308771012	2007/08/02	BD	NT	EUR	EUR			AFB	AFB	CORR	EUR	EUR	EUR	EUR	FBD	FBD	FBD	FBD	
BSCHG	I	2009/08/17	2009/08/17	26055	524394	XS0278172977	2007/02/03	BD	NT	EUR	EUR			FR	FR	CORR	EUR	EUR	EUR	EUR	MFBD	MFBD	MFBD	MFBD	
BSCHG	I	2009/08/24	2009/08/24	26334	552958	XS0261227325	2006/09/13	BD	NT	EUR	EUR			FR	FR	CLEAN	EUR	EUR	EUR	EUR		MFBD		MFBD	
BSCHG	I	2009/08/29	2009/08/29	26597	582686	XS0292636395	2007/05/09	BD	NT	EUR	EUR			FR	FR	CLEAN	EUR	EUR	EUR	EUR	MFBD	MFBD		MFBD	
BSCHG	I	2009/08/29	2009/08/29	26599	574757	XS0292715009	2007/04/05	BD	NT	EUR	EUR			AFB	AFB	CLEAN	EUR	EUR	EUR	EUR	MFBD	MFBD			
BSCHG	I	2009/09/01	2009/09/01	26649	589453	XS0294337984	2007/04/27	BD	NT	EUR	EUR			FR	FR	CORR	EUR	EUR	EUR	EUR					
BSCHG	I	2009/09/02	2009/09/02	26661	597045	XS0299446442	2007/05/20	BD	NT	GBP	GBP			FR	FR	CORR	GBP	GBP	GBP	GBP	FBD	FBD			
BSCHG	I	2009/09/05	2009/09/05	26843	602535	XS0305646183	2007/07/12	BD	NT	EUR	EUR			FR	FR	CLEAN	EUR	EUR	EUR	EUR		FBD		FBD	
BSCHG	I	2009/09/07	2009/09/07	26886	636318	XS0311203813	2007/08/02	BD	NT	EUR	EUR			FR	FR	CORR	EUR	EUR	EUR	EUR	FBD	FBD	FBD	FBD	
BSCHG	I	2009/09/08	2009/09/08	26998	712505	XS0322039149	2007/10/20	BD	NT	EUR	EUR			FR	FR	CORR	EUR	EUR	EUR	EUR	MFBD	MFBD			
BSCHG	I	2009/09/14	2009/09/14	27227	736146	XS0331163906	2007/12/07	BD	NT	EUR	EUR			FR	FR	CORR	EUR	EUR	EUR	EUR					
BSCHG	I	2009/09/24	2009/09/24	27651	844122	XS0364968866	2008/05/30	BD	NT	EUR	EUR			FR	FR	CORR	EUR	EUR	EUR	EUR					
BSCHG	I	2010/02/24	2010/02/24	35558	498872	XS0278469803	2007/01/29	BD	NT	EUR	EUR			FR	FR	CORR	EUR	EUR	EUR	EUR					
BSCHG	I	2010/03/09	2010/03/09	36234	581568	XS0290390110	2007/03/15	BD	NT	EUR	EUR			FR	FR	CORR	EUR	EUR	EUR	EUR					
BSCHG	I	2010/03/16	2010/03/16	36417	570591	XS0291367182	2007/03/31	BD	NT	EUR	EUR			FR	FR	CORR	EUR	EUR	EUR	EUR	MFBD	MFBD	MFBD	MFBD	
BSCHG	I	2010/03/20	2010/03/20	36566	585326	XS0292918884	2007/04/05	BD	NT	EUR	EUR			FR	FR	CORR	EUR	EUR	EUR	EUR	FBD	FBD	FBD	FBD	
BSCHG	I	2010/03/24	2010/03/24	36735	593644	XS0298497495	2007/05/01	BD	NT	EUR	EUR			FR	FR	CLEAN	EUR	EUR	EUR	EUR		FBD			
BSCHG	I	2010/04/01	2010/04/01	37195	593208	XS0298609719	2007/05/25	BD	NT	EUR	EUR			FXDFR	FXDFR	CORR	EUR	EUR	EUR	EUR	MFBD	MFBD	MFBD	MFBD	
BSCHG	I	2010/04/01	2010/04/01	37199	593195	XS0297940149	2007/05/28	BD	NT	EUR	EUR			AFB	AFB	CORR	EUR	EUR	EUR	EUR	MFBD	MFBD	MFBD	MFBD	
BSCHG	I	2010/04/01	2010/04/01	37203	593196	XS0297939307	2007/05/27	BD	NT	EUR	EUR			FR	FR	CORR	EUR	EUR	EUR	EUR	MFBD	MFBD			
BSCHG	I	2010/05/21	2010/05/21	40416	712497	XS0322031245	2007/10/21	NT	BD	EUR	EUR			FR	FR	CORR	EUR	EUR	EUR	EUR					
BSCHG	I	2010/05/26	2010/05/26	40599	630103	XS0313392432	2007/08/17	BD	NT	EUR	EUR			FR	FR	CORR	EUR	EUR	EUR	EUR	FBD	MFBD	MFBD	MFBD	
BSCHG	I	2010/07/08	2010/07/08	41919	712497	XS0322031245	2007/10/22	BD	NT	EUR	EUR			FR	FR	CORR	EUR	EUR	EUR	EUR	MFBD	MFBD	MFBD	MFBD	
BSCHG	I	2010/07/19	2010/07/19	42238	384548	XS0244742911	2006/05/20	BD	NT	EUR	EUR			FR	FR	CORR	EUR	EUR	EUR	EUR					
BSCHG	I	2010/08/04	2010/08/04	42897	487696	XS0196449366	2004/08/08	BD	NT	EUR	EUR			FR	FR	CORR	EUR	EUR	EUR	EUR					
BSCHG	U	2010/12/07	2010/12/07	47819	453369	XS0268819868	2006/10/17	NT	NT	USD	EUR			FR	FR	CORR	USD	EUR	USD	EUR	MFBD	MFBD	MFBD	MFBD	
BSCHG	U	2011/03/01	2011/03/01	52856	486736	XS0272582395	2006/11/18	BD	NT	EUR	EUR			FR	FR	CORR	EUR	EUR	EUR	EUR	MFBD	MFBD	MFBD	MFBD	
BSCHG	I	2011/04/29	2011/04/29	56985	643842	XS0309841376	2007/08/02	NT	BD	EUR	EUR			FR	FR	CORR	EUR	EUR	EUR	EUR					
BSCHG	I	2011/07/02	2011/07/02	60541	602535	XS0305646183	2007/07/13	NT	NT	EUR	EUR			FR	FR	CLEAN	EUR	EUR	EUR	EUR	FBD	MFBD	FBD	MFBD	
BSCHG	I	2011/08/04	2011/08/04	62256	226087	XS0145222120	2002/04/11	BD	NT	EUR	EUR			FR	FR	CORR	EUR	EUR	EUR	EUR	FBD	FBD	PBD	PBD	
BSCHG	I	2012/02/23	2012/02/23	74696	481631	XS0237059158	2005/12/15	BD	NT	EUR	EUR			FR	FR	CORR	EUR	EUR	EUR	EUR					
BSCHG	I	2012/02/23	2012/02/23	74698	481631	XS0237059158	2005/12/16	NT	NT	EUR	EUR			FR	AFB	CORR	EUR	EUR	EUR	EUR					
BSCHG	I	2012/09/19	2012/09/19	90231	843115	XS0243997706	2006/02/24	NT	NT	EUR	EUR			FR	AFB	CORR	EUR	EUR	EUR	EUR	FBD	FBD	FBD	FBD	
BSCHG	I	2012/09/19	2012/09/19	90248	490447	XS0244000187	2006/02/25	BD	NT	EUR	EUR			FR	FR	CORR	EUR	EUR	EUR	EUR	FBD	FBD	FBD	FBD	
BSCHG	I	2012/09/19	2012/09/19	90249	490447	XS0244000187	2006/02/26	NT	NT	EUR	EUR			FR	AFB	CORR	EUR	EUR	EUR	EUR	FBD	FBD	FBD	FBD	
BSCHG	I	2012/12/27	2012/12/27	96590	1163135	XS0304541625	2007/06/14	BD	BD	GBP	GBP			ZC	FR	CORR	GBP	GBP	GBP	GBP					
BSCHG	I	2014/07/23	2014/07/23	146314	4283980	XS1067654217	2014/06/05	NT	NT	EUR	EUR			FR	AFB	CORR	EUR	EUR	EUR	EUR					
BSCHG	I	2014/08/25	2014/08/25	150146	4295411	XS1075043890	2014/06/27	BD	BD	EUR	EUR			FR	AFB	CORR	EUR	EUR	EUR	EUR					
BSCHG	I	2014/08/25	2014/08/25	150147	4295411	XS1075043890	2014/06/28	BD	NT	EUR	EUR			AFB	AFB	CORR	EUR	EUR	EUR	EUR					
BSCHG	I	2015/08/10	2015/08/10	183280	641946	XS0311179922	2007/08/09	BD	NT	EUR	EUR			FR	FR	CORR	EUR	EUR	EUR	EUR					
EDI_ENDOFFILE
