EDI_MTCHG_20150818
TableName	Actflag	Created	Changed	MtChgID	SecID	ISIN	NotificationDate	OldMaturityDate	NewMaturityDate	Reason	EventType	OldMaturityBenchmark	NewMaturityBenchmark	Notes
MTCHG	I	2006/01/21	2006/01/21	1373	190565	XS0202219092	2006/01/20	2090/10/20	2090/09/20		CORR			
MTCHG	I	2006/04/27	2006/04/27	1853	336432	XS0235683736	2006/02/21	2017/01/27	2017/07/27		CORR			
MTCHG	I	2006/04/27	2006/04/27	1854	309954	XS0235684114	2006/02/21	2017/01/27	2017/07/27		CORR			
MTCHG	I	2007/04/03	2007/04/03	6728	498872	XS0278469803	2007/01/25	2022/09/25	2023/09/25		CORR			
MTCHG	I	2007/04/03	2007/04/03	6761	568361	XS0277024658	2006/12/20	2022/12/15	2022/01/31		CLEAN			
MTCHG	I	2007/04/16	2007/04/16	7368	498872	XS0278469803	2007/01/30	2023/09/25	2022/09/25		CORR			
MTCHG	I	2007/04/26	2007/04/26	7810	562956	XS0287420888	2007/02/21	2021/05/10	2021/05/21		CORR			
MTCHG	I	2007/05/15	2007/05/15	8386	581568	XS0290390110	2007/03/14	2023/12/31	2023/12/20		CORR			
MTCHG	I	2007/05/30	2007/05/30	8857	574757	XS0292715009	2007/04/04	2023/04/04	2023/04/17		CORR			
MTCHG	I	2007/06/15	2007/06/15	9563	593196	XS0297939307	2007/05/24	2023/11/24	2023/05/24		CORR			
MTCHG	I	2007/06/15	2007/06/15	9565	593195	XS0297940149	2007/05/24	2023/11/24	2023/05/24		CORR			
MTCHG	I	2007/06/27	2007/06/27	9921	596931	XS0294790547	2007/05/16	2023/07/24	9998/12/31		CORR			
MTCHG	I	2007/07/05	2007/07/05	10174	593644	XS0298497495	2007/04/30	2096/05/30	2096/05/10		CORR			
MTCHG	I	2007/08/23	2007/08/23	11323	596931	XS0294790547	2007/05/17	9998/12/31	2023/07/24		CLEAN			
MTCHG	I	2007/09/20	2007/09/20	11790	636802	XS0308771012	2007/09/20	2098/12/31	2026/04/15		CLEAN			
MTCHG	I	2007/10/29	2007/10/29	12327	630103	XS0313392432	2007/08/16	2022/09/30	2022/10/15		CORR			
MTCHG	I	2007/11/16	2007/11/16	12437	593195	XS0297940149	2007/05/26	2023/05/24	2023/11/24		CORR			
MTCHG	I	2007/11/16	2007/11/16	12438	593196	XS0297939307	2007/05/26	2023/05/24	2023/11/24		CORR			
MTCHG	I	2009/06/10	2009/06/10	17925	365974	XS0247636334	2009/06/10	2021/06/08	2009/06/19		CORR			
MTCHG	I	2009/06/11	2009/06/11	17946	365974	XS0247636334	2009/06/11	2009/06/19	2021/06/08		CLEAN			
MTCHG	I	2009/07/24	2009/07/24	18422	593196	XS0297939307	2009/06/02	2023/11/24	2023/05/24		CORR			
MTCHG	I	2009/09/24	2009/09/24	19448	844122	XS0364968866	2008/06/01	2024/12/09	2024/11/17		CORR			
MTCHG	I	2010/04/01	2010/04/01	21986	593195	XS0297940149	2007/05/27	2023/11/24	2023/05/24		CORR			
MTCHG	I	2012/04/30	2012/04/30	29385	562956	XS0287420888	2007/02/24	2021/05/21	2021/05/10		CORR			
MTCHG	I	2014/01/13	2014/01/13	36420	475992	XS0204594682	2004/11/30	2020/01/05	2020/01/15		CORR			
MTCHG	I	2014/01/21	2014/01/21	36662	484144	XS0137996954	2001/11/15	2014/11/15	2017/11/15		CORR			
MTCHG	I	2015/06/13	2015/06/15	43888	489729	XS0137994660	2001/11/15	2014/11/15	2017/11/15		CORR			
EDI_ENDOFFILE
