EDI_PVRD_20150818
TableName	Actflag	Created	Changed	PvRdID	SecID	ISIN	EffectiveDate	CurenCD	OldParValue	NewParValue	EventType	Notes
PVRD	I	2006/04/27	2006/04/27	11765	309954	XS0235684114	2006/02/22	GBP	100000.00000	50000.00000	CORR	
PVRD	I	2006/05/30	2006/05/30	12285	363178	XS0251292883	2006/04/21	EUR		50000.00000	CLEAN	
PVRD	I	2007/01/13	2007/01/13	17100	226087	XS0145222120	2002/04/10	EUR		500000.00000	CORR	
PVRD	I	2007/03/05	2007/03/05	19523	529854	XS0273475763	2006/12/30	EUR	1000.00000	100000.00000	CLEAN	
PVRD	I	2007/04/02	2007/04/02	20268	533761	XS0277789094	2006/12/14	EUR	1000.00000	100000.00000	CORR	
PVRD	I	2007/04/03	2007/04/03	20331	524385	XS0278170765	2007/01/31	EUR		1000.00000	CORR	
PVRD	I	2007/04/03	2007/04/03	20332	524394	XS0278172977	2007/01/31	EUR		1000.00000	CORR	
PVRD	I	2007/04/03	2007/04/03	20336	498872	XS0278469803	2007/01/26	EUR	100000.00000	1000.00000	CORR	
PVRD	I	2007/05/24	2007/05/24	21287	570591	XS0291367182	2007/03/29	EUR		1.00000	CLEAN	
PVRD	I	2007/08/02	2007/08/02	22836	636318	XS0311203813	2007/07/31	EUR	10000.00000	1000.00000	CLEAN	
PVRD	I	2007/08/04	2007/08/04	22884	486736	XS0272582395	2006/11/16	EUR	100000.00000	1000.00000	CORR	
PVRD	I	2007/10/12	2007/10/12	24428	636802	XS0308771012	2007/08/01	EUR	1000.00000	100000.00000	CORR	
PVRD	I	2007/10/12	2007/10/12	24435	643767	USG36592AB23	2007/07/26	USD		250000.00000	CORR	
PVRD	I	2007/10/29	2007/10/29	24871	630103	XS0313392432	2007/08/15	EUR	1000.00000	100000.00000	CORR	
PVRD	I	2007/11/16	2007/11/16	25355	593196	XS0297939307	2007/05/25	EUR	1000.00000	100000.00000	CORR	
PVRD	I	2007/11/16	2007/11/16	25357	593208	XS0298609719	2007/05/24	EUR	1000.00000	100000.00000	CORR	
PVRD	I	2007/11/16	2007/11/16	25358	593195	XS0297940149	2007/05/25	EUR	1000.00000	100000.00000	CORR	
PVRD	I	2007/11/19	2007/11/19	25392	570591	XS0291367182	2007/03/30	EUR	1.00000	50000.00000	CLEAN	
PVRD	I	2008/02/04	2008/02/04	27286	643842	XS0309841376	2007/08/14	EUR		1000.00000	CORR	
PVRD	I	2009/02/11	2009/02/11	38689	591314	XS0296313017	2007/05/08	EUR	1000.00000	100000.00000	CORR	
PVRD	I	2009/03/18	2009/03/18	39618	585326	XS0292918884	2007/04/04	EUR	10000.00000	100000.00000	CORR	
PVRD	I	2009/04/28	2009/04/28	40955	487696	XS0196449366	2004/08/06	EUR	1000.00000	500000.00000	CORR	
PVRD	I	2009/06/08	2009/06/08	44040	485319	XS0095906177	1999/03/24	USD	1.00000	200000.00000	CORR	
PVRD	I	2009/06/10	2009/06/10	44169	485319	XS0095906177	1999/03/25	USD	200000.00000	1.00000	CORR	
PVRD	I	2009/06/15	2009/06/15	44314	481631	XS0237059158	2005/12/14	EUR	5000.00000	250000.00000	CORR	
PVRD	I	2009/06/15	2009/06/15	44321	478872	XS0237518955	2005/12/15	EUR	5000.00000	250000.00000	CORR	
PVRD	I	2009/06/17	2009/06/17	44443	357559	XS0247638975	2006/08/21	EUR	1000.00000	100000.00000	CORR	
PVRD	I	2009/06/17	2009/06/17	44476	491020	XS0254054553	2006/07/01	EUR	1000.00000	100000.00000	CORR	
PVRD	I	2009/06/18	2009/06/18	44494	484139	XS0254058034	2006/07/01	EUR	1000.00000	100000.00000	CORR	
PVRD	I	2009/06/23	2009/06/23	44732	485414	XS0229693071	2005/09/22	EUR	1000.00000	100000.00000	CORR	
PVRD	I	2009/07/31	2009/07/31	46356	552958	XS0261227325	2006/09/12	EUR	1000.00000	1000000.00000	CORR	
PVRD	I	2009/08/10	2009/08/10	46699	568361	XS0277024658	2006/12/21	EUR	1000.00000	100000.00000	CORR	
PVRD	I	2009/08/17	2009/08/17	46972	524385	XS0278170765	2007/08/01	EUR	1000.00000	100000.00000	CORR	
PVRD	I	2009/08/17	2009/08/17	46976	524394	XS0278172977	2007/02/02	EUR	1000.00000	100000.00000	CORR	
PVRD	I	2009/08/24	2009/08/24	47253	552958	XS0261227325	2006/09/14	EUR	1000000.00000	100000.00000	CLEAN	
PVRD	I	2009/09/01	2009/09/01	47608	589450	XS0294336820	2007/04/25	EUR	1000.00000	100000.00000	CORR	
PVRD	I	2009/09/01	2009/09/01	47617	589453	XS0294337984	2007/04/25	EUR	1000.00000	100000.00000	CORR	
PVRD	I	2009/09/02	2009/09/02	47655	597045	XS0299446442	2007/05/19	GBP	1000.00000	50000.00000	CORR	
PVRD	I	2009/09/03	2009/09/03	47742	596931	XS0294790547	2007/05/18	EUR	1000.00000	100000.00000	CORR	
PVRD	I	2009/09/05	2009/09/05	47916	602535	XS0305646183	2007/07/11	EUR	1000.00000	100000.00000	CLEAN	
PVRD	I	2009/09/07	2009/09/07	47951	636318	XS0311203813	2007/08/01	EUR	1000.00000	100000.00000	CORR	
PVRD	I	2009/09/08	2009/09/08	48032	712505	XS0322039149	2007/10/21	EUR	1000.00000	100000.00000	CORR	
PVRD	I	2009/10/07	2009/10/07	49348	643767	USG36592AB23	2007/07/27	USD	250000.00000	100000.00000	CORR	
PVRD	I	2009/10/13	2009/10/13	49928	843115	XS0243997706	2006/02/24	EUR		1000.00000	CORR	
PVRD	I	2009/11/17	2009/11/17	55163	484144	XS0137996954	2001/11/16	EUR	10000.00000	100000.00000	CORR	
PVRD	I	2009/11/17	2009/11/17	55415	561082	XS0291724473	2007/04/05	EUR	100.00000	100000.00000	CORR	
PVRD	I	2010/02/11	2010/02/11	59811	562956	XS0287420888	2009/11/11	USD		200000.00000	CORR	
PVRD	I	2010/02/24	2010/02/24	60338	498872	XS0278469803	2007/01/28	EUR	1000.00000	100000.00000	CORR	
PVRD	I	2010/03/09	2010/03/09	60900	581568	XS0290390110	2007/03/16	EUR	1000.00000	250000.00000	CORR	
PVRD	I	2010/03/24	2010/03/24	61642	593644	XS0298497495	2007/05/02	EUR	1000.00000	50000.00000	CLEAN	
PVRD	I	2010/07/08	2010/07/08	66585	712497	XS0322031245	2007/10/19	EUR	1000.00000	100000.00000	CORR	
PVRD	I	2010/08/03	2010/08/03	68511	2035826	USG9330QAB35	2004/09/01	USD	100000.00000	1000.00000	CORR	
PVRD	I	2010/09/15	2010/09/15	71409	479718	XS0204563703	2004/11/23	EUR	1000.00000	500000.00000	CORR	
PVRD	U	2011/03/01	2011/03/01	79696	486736	XS0272582395	2006/11/19	EUR	1000.00000	100000.00000	CORR	
PVRD	I	2012/02/27	2012/02/27	95998	479765	XS0220312440	2005/06/22	EUR	1000.00000	100000.00000	CORR	
PVRD	I	2012/06/16	2012/06/16	103535	423001	ES0377952025	2005/12/01	EUR		100000.00000	CORR	
PVRD	I	2012/09/19	2012/09/19	107474	843115	XS0243997706	2006/02/25	EUR	1000.00000	50000.00000	CORR	
PVRD	I	2012/09/19	2012/09/19	107478	490447	XS0244000187	2006/02/24	EUR	1000.00000	50000.00000	CORR	
PVRD	I	2013/08/22	2013/08/22	128294	489729	XS0137994660	2001/11/16	EUR	10000.00000	100000.00000	CORR	
PVRD	I	2013/08/23	2013/08/23	128410	475992	XS0204594682	2004/12/01	EUR	1000.00000	500000.00000	CORR	
PVRD	I	2013/09/03	2013/09/03	130713	1540419	XS0290091049	2007/03/16	GBP		1000.00000	CORR	
PVRD	I	2013/09/30	2013/09/30	132862	745632	XS0338507196	2007/12/29	EUR	1.00000	100000.00000	CORR	
PVRD	I	2013/11/27	2013/11/27	136001	475992	XS0204594682	2004/12/02	EUR	500000.00000	1000.00000	CORR	
PVRD	I	2014/02/22	2014/02/22	140733	479765	XS0220312440	2005/06/23	EUR	100000.00000	1000.00000	CORR	
PVRD	I	2014/07/10	2014/07/10	151361	236894	XS0216427384	2005/04/15	EUR	100000.00000	1000.00000	CORR	
PVRD	I	2014/08/25	2014/08/25	154533	4295411	XS1075043890	2014/06/26	EUR	1000.00000	100000.00000	CORR	
PVRD	I	2015/07/09	2015/07/09	175691	236894	XS0216427384	2005/04/16	EUR	1000.00000	100000.00000	CLEAN	
PVRD	I	2015/08/10	2015/08/10	178505	641946	XS0311179922	2007/08/08	EUR	1000.00000	100000.00000	CORR	
EDI_ENDOFFILE
