EDI_SCAGY_20150818
TableName	Actflag	Created	Changed	ScagyID	SecID	ISIN	Relationship	AgncyID	GuaranteeType	SpStartDate	SpEndDate	Notes
SCAGY	I	2014/10/14	2014/10/14	1446292	1437557	ES0312378013	GUR	8952	GTD			
SCAGY	I	2014/10/14	2014/10/14	1446293	1437557	ES0312378013	UNW	6364				
SCAGY	I	2014/10/14	2014/10/14	1446294	1437557	ES0312378013	MGR	2718				
SCAGY	I	2010/05/19	2010/05/19	437774	640782	ES0345671053	PA	3369				
SCAGY	I	2010/05/19	2010/05/19	437775	640782	ES0345671053	GUR	3369	GTD			
SCAGY	I	2010/05/19	2010/05/19	437776	640782	ES0345671053	GUR	6800	GTD			
SCAGY	I	2010/05/19	2010/05/19	437777	640782	ES0345671053	GUR	3524	GTD			
SCAGY	I	2010/05/19	2010/05/19	437778	640782	ES0345671053	GUR	4101	GTD			
SCAGY	I	2010/05/19	2010/05/19	437779	640782	ES0345671053	GUR	3883	GTD			
SCAGY	I	2012/06/16	2012/06/16	848663	423001	ES0377952025	PA	4388				
SCAGY	U	2010/12/06	2010/12/06	539747	2243998	KYG4425Q1047	PA	1609				
SCAGY	U	2010/12/06	2010/12/06	539748	2243998	KYG4425Q1047	CUST	1609				
SCAGY	U	2010/12/06	2011/02/08	539749	2243998	KYG4425Q1047	BC	9116				To the Issuer<BR>As to Cayman Islands law
SCAGY	U	2010/12/06	2011/02/08	539750	2243998	KYG4425Q1047	BC	9126				To the Co-Issuers<BR>As to United States law<BR><BR>To the Initial Purchaser
SCAGY	U	2010/12/06	2011/02/08	539751	2243998	KYG4425Q1047	BC	9345				To the Collateral Manager
SCAGY	I	2010/07/31	2010/07/31	470979	2035118	USG16160AL09	DEP	3120				
SCAGY	I	2007/01/02	2007/01/02	33632	400650	USG16374AB94	TST	1426				
SCAGY	I	2007/01/02	2007/01/02	33633	400650	USG16374AB94	PA	1426				
SCAGY	I	2009/10/07	2009/10/07	321636	643767	USG36592AB23	TST	5375				
SCAGY	I	2009/10/07	2009/10/07	321637	643767	USG36592AB23	PA	5375				
SCAGY	I	2009/10/07	2009/10/07	321638	643767	USG36592AB23	REG	5375				
SCAGY	I	2009/09/12	2009/09/12	308091	420976	USG5387WAD68	MGR	5278				
SCAGY	I	2006/11/09	2006/11/09	12125	418578	USG7456CAC40	TST	2022				
SCAGY	I	2006/11/09	2006/11/09	12126	418578	USG7456CAC40	REG	2022				
SCAGY	I	2006/11/27	2006/11/27	16203	418578	USG7456CAC40	PA	2022				
SCAGY	I	2010/08/06	2010/08/06	474729	834226	USG8993BAA82	TST	1380				
SCAGY	I	2010/08/06	2010/08/06	474730	834226	USG8993BAA82	PA	3043				
SCAGY	I	2010/08/06	2010/08/06	474731	834226	USG8993BAA82	REG	3043				
SCAGY	I	2010/08/06	2010/08/06	474732	834226	USG8993BAA82	CAL	3043				
SCAGY	I	2011/05/17	2011/05/17	645356	834226	USG8993BAA82	BC	3968				LEGAL ADVISORS To the Issuer As to Cayman Islands Law<BR><BR>
SCAGY	I	2011/05/17	2011/05/17	645357	834226	USG8993BAA82	CUST	3043				
SCAGY	I	2010/08/02	2010/08/02	472201	2035826	USG9330QAB35	DEP	3120				
SCAGY	I	2007/01/22	2007/01/22	47437	485319	XS0095906177	DEP	1713				
SCAGY	I	2009/06/10	2009/06/10	262805	485319	XS0095906177	DEP	3551				
SCAGY	I	2009/10/28	2009/10/28	328939	489729	XS0137994660	DEP	3316				
SCAGY	I	2009/07/29	2009/07/29	285863	484144	XS0137996954	DEP	3316				
SCAGY	I	2013/05/15	2013/05/15	1058073	484144	XS0137996954	DEP	3623				
SCAGY	I	2011/08/04	2011/08/04	684895	226087	XS0145222120	TST	3099				
SCAGY	I	2011/08/04	2011/08/04	684896	226087	XS0145222120	CUST	3099				
SCAGY	I	2011/08/04	2011/08/04	684897	226087	XS0145222120	PA	3099				PRINCIPAL PAYING AGENT
SCAGY	I	2011/08/04	2011/08/04	684898	226087	XS0145222120	BC	12633				LEGAL ADVISERS<BR>To the Issuer as to<BR>Dutch Law
SCAGY	I	2011/08/04	2011/08/04	684939	226087	XS0145222120	MGR	6136				
SCAGY	I	2011/08/04	2011/08/04	684940	226087	XS0145222120	UNW	6136				
SCAGY	I	2013/08/20	2013/08/20	1126837	226087	XS0145222120	DEP	3623				
SCAGY	I	2011/09/26	2011/09/26	710041	481508	XS0150230158	BC	11245				To the Managers<BR>As to English & united State law
SCAGY	I	2011/09/26	2011/09/26	710042	481508	XS0150230158	CAL	3099				
SCAGY	I	2011/09/26	2011/09/26	710043	481508	XS0150230158	CUST	3099				
SCAGY	I	2011/09/26	2011/09/26	710044	481508	XS0150230158	PA	3099				
SCAGY	I	2011/09/26	2011/09/26	710045	481508	XS0150230158	REG	3374				
SCAGY	I	2011/09/26	2011/09/26	710046	481508	XS0150230158	TST	3099				
SCAGY	I	2009/07/25	2009/07/25	283460	300876	XS0188618101	DEP	3551				
SCAGY	I	2013/10/07	2013/10/07	1169603	300876	XS0188618101	DEP	3623				
SCAGY	I	2009/07/25	2009/07/25	283471	300882	XS0188618523	DEP	3551				
SCAGY	I	2015/06/24	2015/06/24	1622900	300882	XS0188618523	PA	3099				
SCAGY	I	2015/06/24	2015/06/24	1622901	300882	XS0188618523	CUST	3099				
SCAGY	I	2015/06/24	2015/06/24	1622902	300882	XS0188618523	TST	4784				
SCAGY	I	2015/06/24	2015/06/24	1622903	300882	XS0188618523	REG	3374				
SCAGY	I	2015/06/24	2015/06/24	1622904	300882	XS0188618523	BC	9188				
SCAGY	I	2015/06/24	2015/06/24	1622905	300882	XS0188618523	GUR	1425	BPA			
SCAGY	I	2015/06/24	2015/06/24	1622906	300882	XS0188618523	UNW	1425				
SCAGY	I	2015/06/24	2015/06/24	1622944	300882	XS0188618523	GUR	8952	GTD			
SCAGY	I	2010/04/17	2010/04/17	425750	487696	XS0196449366	DEP	3623				
SCAGY	I	2010/08/04	2010/08/04	473070	487696	XS0196449366	CAL	3099				
SCAGY	I	2010/08/04	2010/08/04	473071	487696	XS0196449366	CUST	3099				
SCAGY	I	2010/08/04	2010/08/04	473072	487696	XS0196449366	PA	3099				
SCAGY	I	2010/08/04	2010/08/04	473073	487696	XS0196449366	REG	3374				
SCAGY	I	2010/08/04	2010/08/04	473074	487696	XS0196449366	TST	4784				
SCAGY	I	2013/09/23	2013/09/23	1157564	190565	XS0202219092	DEP	3556				
SCAGY	I	2009/08/25	2009/08/25	297227	479718	XS0204563703	DEP	3551				
SCAGY	I	2009/08/04	2009/08/04	289393	475992	XS0204594682	DEP	3556				
SCAGY	I	2007/01/13	2007/01/13	43234	240544	XS0214987264	DEP	1713				
SCAGY	I	2009/06/06	2009/06/06	260827	240544	XS0214987264	TST	4784				
SCAGY	I	2009/06/06	2009/06/06	260828	240544	XS0214987264	CUST	3517				
SCAGY	I	2009/06/06	2009/06/06	260829	240544	XS0214987264	PA	3517				
SCAGY	I	2009/07/27	2009/07/27	284135	236889	XS0216426063	DEP	3556				
SCAGY	I	2009/10/05	2009/10/05	320176	236889	XS0216426063	TST	1383				
SCAGY	I	2009/10/05	2009/10/05	320177	236889	XS0216426063	CUST	1425				
SCAGY	I	2009/10/05	2009/10/05	320178	236889	XS0216426063	PA	1425				
SCAGY	I	2009/10/05	2009/10/05	320179	236889	XS0216426063	REG	1392				
SCAGY	I	2009/07/25	2009/07/25	283540	236894	XS0216427384	DEP	3556				
SCAGY	I	2009/10/05	2009/10/05	320207	236894	XS0216427384	TST	1383				
SCAGY	I	2009/10/05	2009/10/05	320208	236894	XS0216427384	PA	1425				
SCAGY	I	2009/10/05	2009/10/05	320209	236894	XS0216427384	CUST	1425				
SCAGY	I	2009/10/05	2009/10/05	320210	236894	XS0216427384	REG	1392				
SCAGY	I	2012/02/27	2012/02/27	773938	479765	XS0220312440	DEP	3623				
SCAGY	I	2006/08/17	2006/08/17	544	401527	XS0223493841	TST	1383				
SCAGY	I	2006/08/17	2006/08/17	545	401527	XS0223493841	PA	1384				
SCAGY	I	2006/08/17	2006/08/17	549	401529	XS0223494575	TST	1383				
SCAGY	I	2006/08/17	2006/08/17	550	401529	XS0223494575	PA	1384				
SCAGY	I	2009/07/08	2009/07/08	275030	401529	XS0223494575	DEP	3556				
SCAGY	I	2006/08/17	2006/08/17	606	401542	XS0223497248	TST	1383				
SCAGY	I	2006/08/17	2006/08/17	607	401542	XS0223497248	PA	1384				
SCAGY	I	2009/07/08	2009/07/08	275033	401542	XS0223497248	DEP	3556				
SCAGY	U	2011/01/13	2011/02/08	561710	362124	XS0225547438	BC	1811				LEGAL ADVISERS<BR>To the Collateral Manager<BR>as to English Law
SCAGY	U	2011/01/13	2011/02/08	561711	362124	XS0225547438	BC	8984				LEGAL ADVISERS<BR>To the Initial Purchaser as to<BR>English and United States Law<BR>To the Trustee as to<BR>English and United States Law
SCAGY	U	2011/01/13	2011/02/08	561712	362124	XS0225547438	BC	9052				LEGAL ADVISERS<BR>To the Issuer as to Irish Law
SCAGY	U	2011/01/13	2011/01/13	561713	362124	XS0225547438	CUST	1430				
SCAGY	U	2011/01/13	2011/01/13	561714	362124	XS0225547438	MGR	3742				
SCAGY	U	2011/01/13	2011/02/08	561715	362124	XS0225547438	PA	1430				PRINCIPAL PAYING AGENT,
SCAGY	U	2011/01/13	2011/02/08	561716	362124	XS0225547438	PA	4860				PAYING AGENT<BR>US PAYING AGENT
SCAGY	U	2011/01/13	2011/02/08	561718	362124	XS0225547438	PA	10276				IRISH PAYING AGENT<BR>
SCAGY	U	2011/01/13	2011/01/13	561719	362124	XS0225547438	REG	4860				
SCAGY	U	2011/01/13	2011/01/13	561720	362124	XS0225547438	TST	1663				
SCAGY	I	2009/07/03	2009/07/03	272981	329197	XS0226406238	DEP	3558				
SCAGY	I	2010/08/09	2010/08/09	477415	329197	XS0226406238	TST	1380				
SCAGY	I	2010/08/09	2010/08/09	477416	329197	XS0226406238	PA	3198				
SCAGY	I	2010/08/09	2010/08/09	477417	329197	XS0226406238	CUST	3198				
SCAGY	I	2010/08/09	2010/08/09	477418	329197	XS0226406238	REG	1418				
SCAGY	I	2010/08/09	2010/08/09	477419	329197	XS0226406238	DEP	1418				
SCAGY	I	2010/08/09	2010/08/09	477424	329197	XS0226406238	CAL	2142				
SCAGY	I	2009/06/23	2009/06/23	268417	485414	XS0229693071	CAL	3099				
SCAGY	I	2009/06/23	2009/06/23	268419	485414	XS0229693071	PA	3099				
SCAGY	I	2009/06/23	2009/06/23	268420	485414	XS0229693071	CUST	3099				
SCAGY	I	2009/06/23	2009/06/23	268421	485414	XS0229693071	TST	1573				
SCAGY	I	2009/06/23	2009/06/23	268422	485414	XS0229693071	REG	1417				
SCAGY	I	2009/06/23	2009/06/23	268637	485414	XS0229693071	MGR	3886				
SCAGY	I	2014/05/26	2014/05/26	1346426	485414	XS0229693071	DEP	3623				
SCAGY	I	2011/09/06	2011/09/06	700005	288587	XS0229693824	DEP	3623				
SCAGY	I	2010/02/04	2010/02/04	377556	358841	XS0235146569	DEP	3556				
SCAGY	I	2010/06/28	2010/06/28	452478	358841	XS0235146569	TST	1383				
SCAGY	I	2010/06/28	2010/06/28	452479	358841	XS0235146569	PA	1425				
SCAGY	I	2010/06/28	2010/06/28	452480	358841	XS0235146569	CUST	1425				
SCAGY	I	2009/05/11	2009/05/11	252537	336432	XS0235683736	DEP	3556				
SCAGY	I	2010/07/20	2010/07/20	461135	309954	XS0235684114	DEP	3556				
SCAGY	I	2009/10/06	2009/10/06	321471	360988	XS0236228317	TST	1383				
SCAGY	I	2009/10/06	2009/10/06	321472	360988	XS0236228317	REG	4848				
SCAGY	I	2009/10/06	2009/10/06	321473	360988	XS0236228317	CUST	1425				
SCAGY	I	2009/10/06	2009/10/06	321474	360988	XS0236228317	PA	1425				
SCAGY	I	2013/08/30	2013/08/30	1135309	360988	XS0236228317	DEP	3556				
SCAGY	I	2009/07/30	2009/07/30	286363	481631	XS0237059158	DEP	3316				
SCAGY	I	2012/02/23	2012/02/23	771993	481631	XS0237059158	UNW	6698				
SCAGY	I	2012/02/23	2012/02/23	771994	481631	XS0237059158	TST	4784				
SCAGY	I	2012/02/23	2012/02/23	771995	481631	XS0237059158	DEP	1417				
SCAGY	I	2012/02/23	2012/02/23	771996	481631	XS0237059158	REG	1417				
SCAGY	I	2012/02/23	2012/02/23	771997	481631	XS0237059158	CUST	4868				
SCAGY	I	2012/02/23	2012/02/23	771998	481631	XS0237059158	CAL	4868				
SCAGY	I	2012/02/23	2012/02/23	771999	481631	XS0237059158	PA	4868				
SCAGY	I	2012/02/23	2012/02/23	772000	481631	XS0237059158	BC	9404				LEGAL ADVISERS<BR>To the Issuer as to Irish law
SCAGY	I	2009/06/15	2009/06/15	264287	478872	XS0237518955	TST	4784				
SCAGY	I	2009/06/15	2009/06/15	264288	478872	XS0237518955	DEP	1417				
SCAGY	I	2009/06/15	2009/06/15	264289	478872	XS0237518955	REG	1417				
SCAGY	I	2009/06/15	2009/06/15	264290	478872	XS0237518955	CUST	1375				
SCAGY	I	2009/06/15	2009/06/15	264291	478872	XS0237518955	CAL	1375				
SCAGY	I	2009/06/15	2009/06/15	264292	478872	XS0237518955	PA	1375				
SCAGY	I	2009/08/12	2009/08/12	291872	328170	XS0241540763	DEP	3316				
SCAGY	I	2010/06/29	2010/06/29	453087	328170	XS0241540763	TST	1577				
SCAGY	I	2010/06/29	2010/06/29	453088	328170	XS0241540763	CUST	3022				
SCAGY	I	2010/06/29	2010/06/29	453089	328170	XS0241540763	PA	3022				
SCAGY	I	2012/08/11	2012/08/11	872907	328170	XS0241540763	DEP	3623				
SCAGY	I	2010/06/29	2010/06/29	452977	332587	XS0241544161	CUST	2109				
SCAGY	I	2010/06/29	2010/06/29	452978	332587	XS0241544161	PA	2109				
SCAGY	I	2010/06/29	2010/06/29	452979	332587	XS0241544161	TST	1577				
SCAGY	I	2013/08/13	2013/08/13	1121302	332587	XS0241544161	DEP	3623				
SCAGY	I	2009/10/13	2009/10/13	323744	843115	XS0243997706	DEP	3316				
SCAGY	I	2012/09/19	2012/09/19	891816	843115	XS0243997706	DEP	8924				
SCAGY	I	2012/09/19	2012/09/19	891817	843115	XS0243997706	PA	8924				
SCAGY	I	2012/09/19	2012/09/19	891818	843115	XS0243997706	REG	8924				
SCAGY	I	2012/09/19	2012/09/19	891819	843115	XS0243997706	TST	4784				
SCAGY	I	2012/09/19	2012/09/19	891820	843115	XS0243997706	CUST	3517				
SCAGY	I	2012/09/19	2012/09/19	891821	843115	XS0243997706	BC	9052				LEGAL ADVISER<BR>To the Issuer as to Irish Law
SCAGY	I	2012/09/19	2012/09/19	891952	843115	XS0243997706	GUR	1977	BPA			
SCAGY	I	2012/09/19	2012/09/19	891953	843115	XS0243997706	UNW	1977				
SCAGY	I	2009/10/13	2009/10/13	323757	490447	XS0244000187	DEP	3316				
SCAGY	I	2012/09/19	2012/09/19	892027	490447	XS0244000187	UNW	1977				
SCAGY	I	2012/09/19	2012/09/19	892028	490447	XS0244000187	GUR	1977	BPA			
SCAGY	I	2012/09/19	2012/09/19	892029	490447	XS0244000187	TST	4784				
SCAGY	I	2012/09/19	2012/09/19	892030	490447	XS0244000187	PA	8924				
SCAGY	I	2012/09/19	2012/09/19	892031	490447	XS0244000187	REG	8924				
SCAGY	I	2012/09/19	2012/09/19	892032	490447	XS0244000187	DEP	8924				
SCAGY	I	2012/09/19	2012/09/19	892033	490447	XS0244000187	CUST	3517				
SCAGY	I	2012/09/19	2012/09/19	892034	490447	XS0244000187	BC	9052				LEGAL ADVISER<BR>To the Issuer as to Irish Law
SCAGY	I	2007/03/15	2007/03/15	84348	384548	XS0244742911	DEP	2363				
SCAGY	I	2009/06/20	2009/06/20	267265	384548	XS0244742911	DEP	3316				
SCAGY	I	2010/07/19	2010/07/19	460625	384548	XS0244742911	PA	5404				
SCAGY	I	2010/07/19	2010/07/19	460626	384548	XS0244742911	TST	5404				
SCAGY	I	2009/05/07	2009/05/07	252026	384561	XS0244743489	TST	1378				
SCAGY	I	2009/05/07	2009/05/07	252027	384561	XS0244743489	PA	1378				
SCAGY	I	2009/08/21	2009/08/21	295707	384561	XS0244743489	DEP	3551				
SCAGY	I	2013/08/20	2013/08/20	1126886	384561	XS0244743489	DEP	3623				
SCAGY	I	2009/07/31	2009/07/31	287561	357710	XS0247402422	DEP	3558				
SCAGY	I	2009/10/24	2009/10/24	327625	357715	XS0247409948	DEP	3558				
SCAGY	I	2010/01/14	2010/01/14	360629	365009	XS0247515207	DEP	3556				
SCAGY	I	2009/06/10	2009/06/10	262368	365974	XS0247636334	TST	1383				
SCAGY	I	2009/06/10	2009/06/10	262369	365974	XS0247636334	CAL	1425				
SCAGY	I	2009/06/10	2009/06/10	262370	365974	XS0247636334	PA	1425				
SCAGY	I	2009/06/10	2009/06/10	262371	365974	XS0247636334	CUST	1425				
SCAGY	I	2009/06/10	2009/06/10	262372	365974	XS0247636334	REG	1392				
SCAGY	I	2009/06/17	2009/06/17	265684	357559	XS0247638975	CAL	1425				
SCAGY	I	2009/06/17	2009/06/17	265685	357559	XS0247638975	PA	1425				
SCAGY	I	2009/06/17	2009/06/17	265686	357559	XS0247638975	CUST	1425				
SCAGY	I	2009/06/17	2009/06/17	265687	357559	XS0247638975	TST	1383				
SCAGY	I	2009/06/17	2009/06/17	265688	357559	XS0247638975	REG	1392				
SCAGY	I	2009/10/09	2009/10/09	322489	364553	XS0248144163	DEP	3556				
SCAGY	I	2013/10/25	2013/10/25	1189269	364563	XS0248144759	DEP	3556				
SCAGY	I	2009/10/15	2009/10/15	324263	363178	XS0251292883	DEP	3560				
SCAGY	I	2012/05/29	2012/05/29	834331	363178	XS0251292883	CAL	1388				
SCAGY	I	2012/05/29	2012/05/29	834332	363178	XS0251292883	TST	1729				
SCAGY	I	2012/05/29	2012/05/29	834333	363178	XS0251292883	PA	1582				
SCAGY	I	2012/05/29	2012/05/29	834334	363178	XS0251292883	CUST	1582				
SCAGY	I	2012/05/29	2012/05/29	834335	363178	XS0251292883	BC	16514				To the Initial Purchasers as to<BR>German law
SCAGY	I	2006/10/04	2006/10/04	6908	419838	XS0251752639	PA	1430				
SCAGY	I	2006/10/04	2006/10/04	6910	419838	XS0251752639	CUST	1430				
SCAGY	I	2006/10/04	2006/10/04	6914	419838	XS0251752639	REG	1565				
SCAGY	I	2010/07/22	2010/07/22	462376	419838	XS0251752639	CAL	1430				
SCAGY	I	2010/07/22	2010/07/22	462377	419838	XS0251752639	TST	1430				
SCAGY	I	2009/08/19	2009/08/19	294466	384572	XS0253796329	DEP	3551				
SCAGY	I	2010/07/20	2010/07/20	461115	384572	XS0253796329	MGR	5296				
SCAGY	I	2010/07/20	2010/07/20	461116	384572	XS0253796329	PA	5404				
SCAGY	I	2010/07/20	2010/07/20	461117	384572	XS0253796329	TST	5404				
SCAGY	I	2007/01/29	2007/01/29	51669	491020	XS0254054553	DEP	1425				
SCAGY	I	2009/06/17	2009/06/17	265995	491020	XS0254054553	CAL	1425				
SCAGY	I	2009/06/17	2009/06/17	265996	491020	XS0254054553	CUST	1425				
SCAGY	I	2009/06/17	2009/06/17	265997	491020	XS0254054553	PA	1425				
SCAGY	I	2009/06/17	2009/06/17	265998	491020	XS0254054553	REG	1392				
SCAGY	I	2009/06/17	2009/06/17	265999	491020	XS0254054553	TST	1383				
SCAGY	I	2007/01/20	2007/01/20	46819	484139	XS0254058034	DEP	1425				
SCAGY	I	2009/06/18	2009/06/18	266205	484139	XS0254058034	CAL	1425				
SCAGY	I	2009/06/18	2009/06/18	266206	484139	XS0254058034	CUST	1425				
SCAGY	I	2009/06/18	2009/06/18	266207	484139	XS0254058034	PA	1425				
SCAGY	I	2009/06/18	2009/06/18	266208	484139	XS0254058034	REG	1392				
SCAGY	I	2009/06/18	2009/06/18	266209	484139	XS0254058034	TST	1383				
SCAGY	I	2013/08/23	2013/08/23	1129248	388182	XS0256419903	DEP	3623				
SCAGY	I	2006/11/02	2006/11/02	11057	428392	XS0256541532	TST	1383				
SCAGY	I	2006/11/02	2006/11/02	11058	428392	XS0256541532	CAL	1425				
SCAGY	I	2006/11/02	2006/11/02	11060	428392	XS0256541532	PA	1425				
SCAGY	I	2006/11/02	2006/11/02	11063	428392	XS0256541532	CUST	1425				
SCAGY	I	2006/11/02	2006/11/02	11064	428392	XS0256541532	REG	1426				
SCAGY	I	2006/10/09	2006/10/09	7632	421644	XS0259368925	SECBY	1792				
SCAGY	I	2006/10/09	2006/10/09	7633	421644	XS0259368925	TST	1383				
SCAGY	I	2006/10/09	2006/10/09	7635	421644	XS0259368925	PA	1425				
SCAGY	I	2007/03/09	2007/03/09	82657	421644	XS0259368925	CUST	1425				
SCAGY	I	2007/03/09	2007/03/09	82658	421644	XS0259368925	CAL	1425				
SCAGY	I	2007/03/09	2007/03/09	82659	421644	XS0259368925	REG	1426				
SCAGY	I	2006/10/02	2006/10/02	6508	401271	XS0260354732	PA	1375				
SCAGY	I	2006/10/02	2006/10/02	6509	401271	XS0260354732	TST	1573				
SCAGY	I	2007/04/30	2007/04/30	94682	552958	XS0261227325	DEP	2363				
SCAGY	I	2009/08/24	2009/08/24	296737	552958	XS0261227325	CUST	3517				
SCAGY	I	2009/08/24	2009/08/24	296738	552958	XS0261227325	PA	3517				
SCAGY	I	2009/08/24	2009/08/24	296739	552958	XS0261227325	REG	1417				
SCAGY	I	2009/08/24	2009/08/24	296740	552958	XS0261227325	TST	4784				
SCAGY	I	2015/04/27	2015/04/27	1581305	552958	XS0261227325	GUR	1439	BPA			
SCAGY	I	2015/04/27	2015/04/27	1581306	552958	XS0261227325	UNW	1439				
SCAGY	I	2006/08/31	2006/08/31	3024	405753	XS0261629801	TST	1390				
SCAGY	I	2006/08/31	2006/08/31	3025	405753	XS0261629801	PA	1430				
SCAGY	I	2006/08/31	2006/08/31	3026	405753	XS0261629801	CUST	1430				
SCAGY	I	2006/08/31	2006/08/31	3027	405753	XS0261629801	CAL	1430				
SCAGY	I	2006/08/31	2006/08/31	3028	405753	XS0261629801	REG	1431				
SCAGY	I	2009/06/27	2009/06/27	270296	405753	XS0261629801	DEP	3558				
SCAGY	I	2006/10/09	2006/10/09	7671	421668	XS0262684862	TST	1411				
SCAGY	I	2006/10/09	2006/10/09	7672	421668	XS0262684862	CUST	1411				
SCAGY	I	2006/10/09	2006/10/09	7673	421668	XS0262684862	CAL	1411				
SCAGY	I	2006/10/09	2006/10/09	7674	421668	XS0262684862	PA	1411				
SCAGY	I	2006/10/09	2006/10/09	7675	421668	XS0262684862	REG	1444				
SCAGY	I	2006/11/20	2006/11/20	14527	418689	XS0268029468	TST	1573				
SCAGY	I	2006/11/20	2006/11/20	14528	418689	XS0268029468	PA	1375				
SCAGY	I	2007/03/08	2007/03/08	82045	418689	XS0268029468	DEP	2363				
SCAGY	I	2009/05/20	2009/05/20	254519	418689	XS0268029468	DEP	3316				
SCAGY	I	2013/09/17	2013/09/17	1151872	418689	XS0268029468	DEP	3623				
SCAGY	I	2006/11/28	2006/11/28	16430	439931	XS0268642161	TST	1395				
SCAGY	I	2006/11/28	2006/11/28	16436	439931	XS0268642161	CUST	2165				
SCAGY	I	2006/11/28	2006/11/28	16437	439931	XS0268642161	PA	1668				
SCAGY	I	2006/11/28	2006/11/28	16438	439931	XS0268642161	DEP	1668				
SCAGY	I	2006/12/16	2006/12/16	24026	453369	XS0268819868	TST	2234				
SCAGY	I	2006/12/16	2006/12/16	24027	453369	XS0268819868	PA	1375				
SCAGY	I	2006/12/16	2006/12/16	24028	453369	XS0268819868	CUST	1375				
SCAGY	I	2006/12/16	2006/12/16	24029	453369	XS0268819868	REG	1417				
SCAGY	I	2009/07/23	2009/07/23	282511	453369	XS0268819868	DEP	3551				
SCAGY	I	2010/01/18	2010/01/18	361927	453369	XS0268819868	DEP	3316				
SCAGY	U	2010/12/07	2011/02/08	540474	453369	XS0268819868	BC	9020				To the Trustee as to English law
SCAGY	U	2010/12/07	2011/02/08	540475	453369	XS0268819868	BC	9040				To the Portfolio Manager as to English law
SCAGY	U	2010/12/07	2011/02/08	540476	453369	XS0268819868	BC	9131				To the Managers as to Dutch law
SCAGY	U	2010/12/07	2011/02/08	540477	453369	XS0268819868	BC	9133				To the Managers as to English law
SCAGY	I	2013/01/16	2013/01/16	972301	453369	XS0268819868	DEP	3623				
SCAGY	I	2006/12/14	2006/12/14	22802	451640	XS0269248984	TST	2234				
SCAGY	I	2006/12/14	2006/12/14	22803	451640	XS0269248984	REG	1381				
SCAGY	I	2006/12/14	2006/12/14	22804	451640	XS0269248984	PA	1375				
SCAGY	I	2006/12/14	2006/12/14	22805	451640	XS0269248984	CUST	1375				
SCAGY	I	2009/07/22	2009/07/22	281843	451640	XS0269248984	DEP	3551				
SCAGY	U	2011/03/26	2011/03/26	617101	451640	XS0269248984	BC	8984				LEGAL ADVISERS<BR>To the Managers as to English law
SCAGY	I	2007/01/02	2007/01/02	34106	466701	XS0269581996	MGR	2286				
SCAGY	I	2007/01/02	2007/01/02	34107	466701	XS0269581996	TST	2231				
SCAGY	I	2007/01/02	2007/01/02	34108	466701	XS0269581996	PA	2231				
SCAGY	I	2007/01/02	2007/01/02	34109	466701	XS0269581996	REG	2231				
SCAGY	I	2009/07/20	2009/07/20	280653	466701	XS0269581996	DEP	3551				
SCAGY	I	2007/01/23	2007/01/23	48687	486954	XS0272301648	TST	2234				
SCAGY	I	2007/01/23	2007/01/23	48688	486954	XS0272301648	REG	1472				
SCAGY	I	2007/01/23	2007/01/23	48689	486954	XS0272301648	PA	1411				
SCAGY	I	2007/01/25	2007/01/25	50529	486954	XS0272301648	CAL	1411				
SCAGY	I	2007/01/25	2007/01/25	50530	486954	XS0272301648	CUST	1411				
SCAGY	I	2010/01/19	2010/01/19	362878	486954	XS0272301648	DEP	3316				
SCAGY	I	2015/07/30	2015/07/30	1650036	486954	XS0272301648	GUR	7645	BPA			
SCAGY	I	2007/01/23	2007/01/23	48644	486943	XS0272302299	TST	2234				
SCAGY	I	2007/01/23	2007/01/23	48645	486943	XS0272302299	REG	1780				
SCAGY	I	2007/01/23	2007/01/23	48646	486943	XS0272302299	PA	1411				
SCAGY	I	2007/01/23	2007/01/23	48647	486943	XS0272302299	CAL	1411				
SCAGY	I	2007/01/23	2007/01/23	48648	486943	XS0272302299	CUST	1411				
SCAGY	I	2007/01/23	2007/01/23	48341	486736	XS0272582395	TST	1383				
SCAGY	I	2007/01/23	2007/01/23	48342	486736	XS0272582395	PA	1425				
SCAGY	I	2007/01/23	2007/01/23	48343	486736	XS0272582395	CUST	1425				
SCAGY	I	2007/01/23	2007/01/23	48344	486736	XS0272582395	CAL	1425				
SCAGY	I	2007/01/23	2007/01/23	48345	486736	XS0272582395	REG	1392				
SCAGY	I	2007/02/17	2007/02/17	70520	486736	XS0272582395	DEP	1425				
SCAGY	U	2011/03/01	2011/03/01	604441	486736	XS0272582395	BC	9052				LEGAL ADVISERS<BR>To the Issuer as to Irish Law
SCAGY	U	2011/03/01	2011/03/01	604442	486736	XS0272582395	BC	9122				LEGAL ADVISERS<BR>To the Initial Purchaser as to<BR>United States Law
SCAGY	U	2011/03/01	2011/03/01	604443	486736	XS0272582395	BC	9188				LEGAL ADVISERS<BR>To the Initial Purchaser as to<BR>English Law
SCAGY	U	2011/03/01	2011/03/01	604444	486736	XS0272582395	BC	10434				LEGAL ADVISERS<BR>To the Investment Manager as<BR>to Irish Law<BR>
SCAGY	U	2011/03/01	2011/03/01	604446	486736	XS0272582395	UNW	3889				
SCAGY	U	2011/03/01	2011/03/01	604447	486736	XS0272582395	MGR	3889				
SCAGY	I	2014/03/11	2014/03/11	1297035	486736	XS0272582395	DEP	3556				
SCAGY	I	2007/03/05	2007/03/05	81051	529854	XS0273475763	CUST	1430				
SCAGY	I	2007/03/05	2007/03/05	81052	529854	XS0273475763	TST	1663				
SCAGY	I	2007/03/05	2007/03/05	81053	529854	XS0273475763	PA	1430				
SCAGY	I	2007/03/05	2007/03/05	81085	529854	XS0273475763	REG	1431				
SCAGY	I	2009/10/01	2009/10/01	319337	529854	XS0273475763	DEP	3705				
SCAGY	I	2007/01/23	2007/01/23	48738	486993	XS0273893502	TST	1383				
SCAGY	I	2007/01/23	2007/01/23	48739	486993	XS0273893502	PA	1425				
SCAGY	I	2007/01/25	2007/01/25	50468	486993	XS0273893502	REG	1392				
SCAGY	I	2007/03/07	2007/03/07	81397	486993	XS0273893502	SECBY	1810				
SCAGY	I	2009/07/23	2009/07/23	282416	486993	XS0273893502	DEP	3556				
SCAGY	I	2007/01/23	2007/01/23	48726	472748	XS0273894732	TST	1383				
SCAGY	I	2007/01/23	2007/01/23	48728	472748	XS0273894732	PA	1425				
SCAGY	I	2007/03/07	2007/03/07	81368	472748	XS0273894732	REG	1392				
SCAGY	I	2007/03/07	2007/03/07	81398	472748	XS0273894732	SECBY	1810				
SCAGY	I	2015/03/27	2015/03/27	1557631	472748	XS0273894732	DEP	3556				
SCAGY	I	2007/03/02	2007/03/02	80522	446549	XS0274446441	TST	2234				
SCAGY	I	2007/03/02	2007/03/02	80523	446549	XS0274446441	REG	1780				
SCAGY	I	2007/03/02	2007/03/02	80524	446549	XS0274446441	PA	2428				
SCAGY	I	2007/03/02	2007/03/02	80526	446549	XS0274446441	CUST	2428				
SCAGY	I	2007/04/02	2007/04/02	88845	533761	XS0277789094	CAL	2415				
SCAGY	I	2007/04/02	2007/04/02	88846	533761	XS0277789094	PA	2415				
SCAGY	I	2007/04/02	2007/04/02	88847	533761	XS0277789094	CUST	2415				
SCAGY	I	2007/04/02	2007/04/02	88848	533761	XS0277789094	TST	2234				
SCAGY	I	2007/04/02	2007/04/02	88849	533761	XS0277789094	REG	1780				
SCAGY	I	2014/03/21	2014/03/21	1305401	533761	XS0277789094	DEP	3623				
SCAGY	I	2009/08/17	2009/08/17	293334	524385	XS0278170765	CUST	2109				
SCAGY	I	2009/08/17	2009/08/17	293338	524385	XS0278170765	CAL	2109				
SCAGY	I	2009/08/17	2009/08/17	293339	524385	XS0278170765	PA	2109				
SCAGY	I	2009/08/17	2009/08/17	293340	524385	XS0278170765	REG	1780				
SCAGY	I	2009/08/17	2009/08/17	293341	524385	XS0278170765	TST	2234				
SCAGY	I	2009/08/17	2009/08/17	293389	524394	XS0278172977	CAL	2109				
SCAGY	I	2009/08/17	2009/08/17	293390	524394	XS0278172977	PA	2109				
SCAGY	I	2009/08/17	2009/08/17	293391	524394	XS0278172977	CUST	2109				
SCAGY	I	2009/08/17	2009/08/17	293392	524394	XS0278172977	TST	2234				
SCAGY	I	2009/08/17	2009/08/17	293393	524394	XS0278172977	REG	5112				
SCAGY	I	2011/12/06	2011/12/06	740116	524394	XS0278172977	GUR	1473	BPA			
SCAGY	I	2011/12/06	2011/12/06	740117	524394	XS0278172977	UNW	1473				
SCAGY	I	2011/12/06	2011/12/06	740118	524394	XS0278172977	BC	2549				LEGAL ADVISERS<BR>To the Initial Purchaser as to English and United States Law
SCAGY	I	2010/02/24	2010/02/24	388720	498872	XS0278469803	CAL	2109				
SCAGY	I	2010/02/24	2010/02/24	388721	498872	XS0278469803	CUST	2109				
SCAGY	I	2010/02/24	2010/02/24	388722	498872	XS0278469803	PA	2109				
SCAGY	I	2010/02/24	2010/02/24	388723	498872	XS0278469803	REG	6664				
SCAGY	I	2010/02/24	2010/02/24	388724	498872	XS0278469803	TST	2234				
SCAGY	I	2011/07/12	2011/07/12	674302	498872	XS0278469803	DEP	2109				
SCAGY	I	2011/07/12	2011/07/12	674303	498872	XS0278469803	GUR	5211	GTD			
SCAGY	I	2011/07/12	2011/07/12	674304	498872	XS0278469803	BC	9188				LEGAL ADVISER TO THE INITIAL PURCHASER AS TO ENGLISH LAW<BR><BR>
SCAGY	I	2011/07/12	2011/07/12	674306	498872	XS0278469803	UNW	3527				
SCAGY	I	2013/08/06	2013/08/06	1117810	498872	XS0278469803	DEP	3623				
SCAGY	I	2009/06/17	2009/06/17	265897	481448	XS0279707961	CAL	1430				
SCAGY	I	2009/06/17	2009/06/17	265898	481448	XS0279707961	PA	1430				
SCAGY	I	2009/06/17	2009/06/17	265899	481448	XS0279707961	REG	1431				
SCAGY	I	2009/06/17	2009/06/17	265900	481448	XS0279707961	TST	2525				
SCAGY	I	2009/05/23	2009/05/23	255261	1436899	XS0282504280	TST	2514				
SCAGY	I	2009/05/23	2009/05/23	255262	1436899	XS0282504280	REG	2514				
SCAGY	I	2009/05/25	2009/05/25	255583	1436899	XS0282504280	PA	4754				
SCAGY	I	2011/06/09	2011/06/09	655653	1436899	XS0282504280	UNW	7952				
SCAGY	I	2011/06/09	2011/06/09	655654	1436899	XS0282504280	UNW	5288				
SCAGY	I	2011/06/09	2011/06/09	655655	1436899	XS0282504280	UNW	7620				
SCAGY	I	2011/06/09	2011/06/09	655656	1436899	XS0282504280	BC	9081				LEGAL ADVISORS<BR>To the CLO Parties<BR>As to matters of United States Law
SCAGY	I	2011/06/09	2011/06/09	655657	1436899	XS0282504280	BC	3968				LEGAL ADVISORS<BR>As to matters of Cayman Islands Law
SCAGY	I	2011/06/09	2011/06/09	655658	1436899	XS0282504280	GUR	12918	OBG			
SCAGY	I	2011/06/09	2011/06/09	655668	1436899	XS0282504280	CAL	2514				
SCAGY	I	2011/06/09	2011/06/09	655669	1436899	XS0282504280	CUST	2514				
SCAGY	I	2011/06/09	2011/06/09	655670	1436899	XS0282504280	DEP	2514				
SCAGY	I	2009/05/25	2009/05/25	255586	1437292	XS0282509164	PA	4754				
SCAGY	I	2009/05/25	2009/05/25	255587	1437292	XS0282509164	REG	2514				
SCAGY	I	2009/05/25	2009/05/25	255588	1437292	XS0282509164	TST	2514				
SCAGY	I	2014/05/02	2014/05/02	1334113	1437292	XS0282509164	DEP	3623				
SCAGY	I	2010/03/09	2010/03/09	396936	562956	XS0287420888	TST	1431				
SCAGY	I	2010/03/09	2010/03/09	396937	562956	XS0287420888	REG	1431				
SCAGY	I	2012/04/30	2012/04/30	813448	562956	XS0287420888	GUR	3484	BPA			
SCAGY	I	2012/04/30	2012/04/30	813449	562956	XS0287420888	DEP	5158				
SCAGY	I	2012/04/30	2012/04/30	813450	562956	XS0287420888	UNW	3484				
SCAGY	I	2012/04/30	2012/04/30	813454	562956	XS0287420888	BC	3968				LEGAL ADVISORS<BR>To the Issuer<BR>As to Certain Matters of Cayman Islands Law
SCAGY	I	2012/04/30	2012/04/30	813455	562956	XS0287420888	PA	1904				
SCAGY	I	2010/03/18	2010/03/18	404032	621133	XS0289322439	CAL	1425				
SCAGY	I	2010/03/18	2010/03/18	404039	621133	XS0289322439	PA	1425				
SCAGY	I	2010/03/18	2010/03/18	404040	621133	XS0289322439	CUST	1425				
SCAGY	I	2010/03/18	2010/03/18	404041	621133	XS0289322439	TST	1383				
SCAGY	I	2010/03/18	2010/03/18	404042	621133	XS0289322439	REG	1392				
SCAGY	I	2009/07/11	2009/07/11	276763	581568	XS0290390110	DEP	3316				
SCAGY	I	2010/03/09	2010/03/09	396830	581568	XS0290390110	PA	2109				
SCAGY	I	2010/03/09	2010/03/09	396831	581568	XS0290390110	CUST	2109				
SCAGY	I	2010/03/09	2010/03/09	396832	581568	XS0290390110	TST	2234				
SCAGY	I	2010/03/09	2010/03/09	396833	581568	XS0290390110	REG	4972				
SCAGY	I	2007/05/11	2007/05/11	97447	570591	XS0291367182	DEP	1425				
SCAGY	I	2010/03/16	2010/03/16	401973	570591	XS0291367182	PA	1425				
SCAGY	I	2010/03/16	2010/03/16	401974	570591	XS0291367182	REG	1426				
SCAGY	I	2010/03/16	2010/03/16	401975	570591	XS0291367182	TST	1383				
SCAGY	I	2007/03/21	2007/03/21	86138	561082	XS0291724473	DEP	1425				
SCAGY	I	2010/03/18	2010/03/18	404144	561082	XS0291724473	CUST	6704				
SCAGY	I	2010/03/18	2010/03/18	404145	561082	XS0291724473	PA	1425				
SCAGY	I	2010/03/18	2010/03/18	404146	561082	XS0291724473	REG	1392				
SCAGY	I	2010/03/18	2010/03/18	404147	561082	XS0291724473	TST	1383				
SCAGY	I	2009/08/29	2009/08/29	299237	582686	XS0292636395	CAL	2109				
SCAGY	I	2009/08/29	2009/08/29	299238	582686	XS0292636395	CUST	2109				
SCAGY	I	2009/08/29	2009/08/29	299240	582686	XS0292636395	PA	2109				
SCAGY	I	2009/08/29	2009/08/29	299241	582686	XS0292636395	REG	5112				
SCAGY	I	2009/08/29	2009/08/29	299242	582686	XS0292636395	TST	2234				
SCAGY	I	2010/01/29	2010/01/29	373409	582686	XS0292636395	DEP	3316				
SCAGY	I	2014/02/04	2014/02/04	1270134	582686	XS0292636395	DEP	3623				
SCAGY	I	2007/05/30	2007/05/30	101912	574757	XS0292715009	DEP	1429				
SCAGY	I	2009/08/29	2009/08/29	299287	574757	XS0292715009	TST	1729				
SCAGY	I	2009/08/29	2009/08/29	299288	574757	XS0292715009	CUST	2856				
SCAGY	I	2009/08/29	2009/08/29	299289	574757	XS0292715009	CAL	3290				
SCAGY	I	2009/08/29	2009/08/29	299290	574757	XS0292715009	PA	1754				
SCAGY	I	2009/08/29	2009/08/29	299291	574757	XS0292715009	REG	1754				
SCAGY	I	2009/08/29	2009/08/29	299292	574757	XS0292715009	CUST	1754				
SCAGY	I	2010/03/20	2010/03/20	404873	585326	XS0292918884	CUST	1430				
SCAGY	I	2010/03/20	2010/03/20	404874	585326	XS0292918884	PA	1430				
SCAGY	I	2010/03/20	2010/03/20	404875	585326	XS0292918884	REG	3124				
SCAGY	I	2010/03/20	2010/03/20	404876	585326	XS0292918884	TST	1663				
SCAGY	I	2013/07/13	2013/07/13	1101867	585326	XS0292918884	DEP	3705				
SCAGY	I	2009/07/24	2009/07/24	283096	589450	XS0294336820	DEP	3558				
SCAGY	I	2009/09/01	2009/09/01	300185	589450	XS0294336820	CAL	3198				
SCAGY	I	2009/09/01	2009/09/01	300186	589450	XS0294336820	PA	3198				
SCAGY	I	2009/09/01	2009/09/01	300187	589450	XS0294336820	REG	3198				
SCAGY	I	2009/09/01	2009/09/01	300188	589450	XS0294336820	CUST	3198				
SCAGY	I	2009/09/01	2009/09/01	300189	589450	XS0294336820	TST	1380				
SCAGY	I	2007/11/13	2007/11/13	138322	589453	XS0294337984	DEP	1379				
SCAGY	I	2009/09/01	2009/09/01	300246	589453	XS0294337984	CAL	3198				
SCAGY	I	2009/09/01	2009/09/01	300247	589453	XS0294337984	CUST	3198				
SCAGY	I	2009/09/01	2009/09/01	300248	589453	XS0294337984	REG	3198				
SCAGY	I	2009/09/01	2009/09/01	300249	589453	XS0294337984	PA	3198				
SCAGY	I	2009/09/01	2009/09/01	300250	589453	XS0294337984	TST	1380				
SCAGY	I	2009/09/03	2009/09/03	301574	596931	XS0294790547	PA	2109				
SCAGY	I	2009/09/03	2009/09/03	301575	596931	XS0294790547	CUST	2109				
SCAGY	I	2009/09/03	2009/09/03	301576	596931	XS0294790547	TST	2234				
SCAGY	I	2009/09/03	2009/09/03	301577	596931	XS0294790547	REG	4972				
SCAGY	I	2007/06/11	2007/06/11	105575	591314	XS0296313017	DEP	1425				
SCAGY	I	2010/03/27	2010/03/27	409572	591314	XS0296313017	PA	6704				
SCAGY	I	2010/03/27	2010/03/27	409573	591314	XS0296313017	REG	1392				
SCAGY	I	2010/03/27	2010/03/27	409574	591314	XS0296313017	TST	1383				
SCAGY	I	2009/07/24	2009/07/24	282762	593196	XS0297939307	DEP	3556				
SCAGY	I	2010/04/01	2010/04/01	412460	593196	XS0297939307	CAL	6704				
SCAGY	I	2010/04/01	2010/04/01	412461	593196	XS0297939307	CUST	6704				
SCAGY	I	2010/04/01	2010/04/01	412462	593196	XS0297939307	PA	6704				
SCAGY	I	2010/04/01	2010/04/01	412463	593196	XS0297939307	REG	1426				
SCAGY	I	2010/04/01	2010/04/01	412464	593196	XS0297939307	TST	1383				
SCAGY	I	2007/06/06	2007/06/06	104560	593195	XS0297940149	DEP	2638				
SCAGY	I	2010/04/01	2010/04/01	412423	593195	XS0297940149	CAL	1425				
SCAGY	I	2010/04/01	2010/04/01	412424	593195	XS0297940149	PA	1425				
SCAGY	I	2010/04/01	2010/04/01	412425	593195	XS0297940149	CUST	1425				
SCAGY	I	2010/04/01	2010/04/01	412426	593195	XS0297940149	REG	1426				
SCAGY	I	2010/04/01	2010/04/01	412427	593195	XS0297940149	TST	1383				
SCAGY	I	2007/06/07	2007/06/07	104897	593644	XS0298497495	DEP	1425				
SCAGY	I	2010/03/24	2010/03/24	406901	593644	XS0298497495	CAL	1425				
SCAGY	I	2010/03/24	2010/03/24	406902	593644	XS0298497495	CUST	1425				
SCAGY	I	2010/03/24	2010/03/24	406903	593644	XS0298497495	PA	1425				
SCAGY	I	2010/03/24	2010/03/24	406904	593644	XS0298497495	TST	1383				
SCAGY	I	2009/06/24	2009/06/24	268912	593208	XS0298609719	DEP	3556				
SCAGY	I	2010/04/01	2010/04/01	412449	593208	XS0298609719	CAL	1425				
SCAGY	I	2010/04/01	2010/04/01	412450	593208	XS0298609719	CUST	1425				
SCAGY	I	2010/04/01	2010/04/01	412451	593208	XS0298609719	PA	1425				
SCAGY	I	2010/04/01	2010/04/01	412452	593208	XS0298609719	REG	1426				
SCAGY	I	2010/04/01	2010/04/01	412453	593208	XS0298609719	TST	1383				
SCAGY	I	2007/07/02	2007/07/02	113438	597045	XS0299446442	DEP	1766				
SCAGY	I	2009/09/02	2009/09/02	300913	597045	XS0299446442	MGR	1425				
SCAGY	I	2009/09/02	2009/09/02	300914	597045	XS0299446442	PA	2109				
SCAGY	I	2009/09/02	2009/09/02	300915	597045	XS0299446442	REG	5112				
SCAGY	I	2009/09/02	2009/09/02	300916	597045	XS0299446442	TST	2234				
SCAGY	I	2007/06/18	2007/06/18	110473	602535	XS0305646183	DEP	1425				
SCAGY	I	2009/09/05	2009/09/05	303727	602535	XS0305646183	CAL	1425				
SCAGY	I	2009/09/05	2009/09/05	303728	602535	XS0305646183	CUST	1425				
SCAGY	I	2009/09/05	2009/09/05	303729	602535	XS0305646183	PA	1425				
SCAGY	I	2009/09/05	2009/09/05	303730	602535	XS0305646183	REG	1426				
SCAGY	I	2009/09/05	2009/09/05	303731	602535	XS0305646183	TST	1383				
SCAGY	I	2011/07/02	2011/07/02	668640	602535	XS0305646183	BC	8983				LEGAL ADVISERS<BR>To the Issuer and Initial<BR>Purchaser as to Dutch Law
SCAGY	I	2011/07/02	2011/07/02	668641	602535	XS0305646183	UNW	1425				
SCAGY	I	2007/08/03	2007/08/03	122677	636802	XS0308771012	DEP	1425				
SCAGY	I	2009/06/24	2009/06/24	268897	636802	XS0308771012	CUST	1425				
SCAGY	I	2009/06/24	2009/06/24	268898	636802	XS0308771012	PA	1425				
SCAGY	I	2009/06/24	2009/06/24	268899	636802	XS0308771012	REG	1392				
SCAGY	I	2009/06/24	2009/06/24	268900	636802	XS0308771012	TST	1383				
SCAGY	I	2008/02/04	2008/02/04	153348	643842	XS0309841376	DEP	2363				
SCAGY	I	2011/04/29	2011/04/29	638065	643842	XS0309841376	DEP	3623				
SCAGY	U	2011/02/09	2011/02/09	586032	641946	XS0311179922	DEP	3560				
SCAGY	I	2015/08/10	2015/08/10	1657849	641946	XS0311179922	UNW	1398				
SCAGY	I	2015/08/10	2015/08/10	1657850	641946	XS0311179922	TST	1729				
SCAGY	I	2015/08/10	2015/08/10	1657851	641946	XS0311179922	REG	20671				
SCAGY	I	2015/08/10	2015/08/10	1657852	641946	XS0311179922	CUST	20671				
SCAGY	I	2015/08/10	2015/08/10	1657853	641946	XS0311179922	PA	20671				
SCAGY	I	2015/08/10	2015/08/10	1657854	641946	XS0311179922	BC	8984				
SCAGY	I	2015/08/10	2015/08/10	1657861	641946	XS0311179922	GUR	1398	BPA			
SCAGY	I	2009/09/07	2009/09/07	304139	636318	XS0311203813	TST	1663				
SCAGY	I	2009/09/07	2009/09/07	304140	636318	XS0311203813	CUST	1430				
SCAGY	I	2009/09/07	2009/09/07	304141	636318	XS0311203813	PA	1430				
SCAGY	I	2009/09/07	2009/09/07	304142	636318	XS0311203813	REG	5170				
SCAGY	I	2010/05/26	2010/05/26	439999	630103	XS0313392432	CAL	1430				
SCAGY	I	2010/05/26	2010/05/26	440000	630103	XS0313392432	PA	1430				
SCAGY	I	2010/05/26	2010/05/26	440001	630103	XS0313392432	CUST	1430				
SCAGY	I	2010/05/26	2010/05/26	440002	630103	XS0313392432	TST	1430				
SCAGY	I	2010/05/26	2010/05/26	440003	630103	XS0313392432	REG	3124				
SCAGY	I	2010/09/18	2010/09/18	498450	630103	XS0313392432	DEP	3705				
SCAGY	I	2007/11/01	2007/11/01	136435	712497	XS0322031245	DEP	2363				
SCAGY	I	2010/07/08	2010/07/08	455576	712497	XS0322031245	CAL	2514				
SCAGY	I	2010/07/08	2010/07/08	455577	712497	XS0322031245	CUST	2514				
SCAGY	I	2010/07/08	2010/07/08	455578	712497	XS0322031245	PA	2514				
SCAGY	I	2010/07/08	2010/07/08	455579	712497	XS0322031245	REG	2514				
SCAGY	I	2010/07/08	2010/07/08	455580	712497	XS0322031245	TST	2514				
SCAGY	I	2009/06/29	2009/06/29	271616	712505	XS0322039149	DEP	3551				
SCAGY	I	2009/09/08	2009/09/08	305546	712505	XS0322039149	PA	2514				
SCAGY	I	2009/09/08	2009/09/08	305547	712505	XS0322039149	CUST	2514				
SCAGY	I	2009/09/08	2009/09/08	305548	712505	XS0322039149	CAL	2514				
SCAGY	I	2009/09/08	2009/09/08	305549	712505	XS0322039149	TST	2514				
SCAGY	I	2009/09/08	2009/09/08	305550	712505	XS0322039149	REG	2514				
SCAGY	I	2007/12/10	2007/12/10	143888	736146	XS0331163906	DEP	1425				
SCAGY	I	2009/09/14	2009/09/14	309546	736146	XS0331163906	TST	1383				
SCAGY	I	2009/09/14	2009/09/14	309553	736146	XS0331163906	REG	1392				
SCAGY	I	2009/09/14	2009/09/14	309554	736146	XS0331163906	PA	1425				
SCAGY	I	2007/12/29	2007/12/29	147258	745632	XS0338507196	DEP	1429				
SCAGY	I	2008/10/07	2008/10/07	206671	844122	XS0364968866	DEP	3316				
SCAGY	I	2009/09/24	2009/09/24	314433	844122	XS0364968866	PA	2109				
SCAGY	I	2009/09/24	2009/09/24	314434	844122	XS0364968866	REG	5112				
SCAGY	I	2009/09/24	2009/09/24	314435	844122	XS0364968866	TST	2234				
SCAGY	I	2014/08/14	2014/08/14	1400225	844122	XS0364968866	GUR	3747	BPA			
SCAGY	I	2014/08/14	2014/08/14	1400226	844122	XS0364968866	UNW	3747				
SCAGY	I	2014/08/14	2014/08/14	1400227	844122	XS0364968866	MGR	3747				
SCAGY	I	2013/10/07	2013/10/07	1170126	4120684	XS0972510530	DEP	3623				
SCAGY	I	2014/07/23	2014/07/23	1382985	4283980	XS1067654217	BC	9404				
SCAGY	I	2014/07/23	2014/07/23	1382986	4283980	XS1067654217	CAL	4757				
SCAGY	I	2014/07/23	2014/07/23	1382987	4283980	XS1067654217	CUST	4757				
SCAGY	I	2014/07/23	2014/07/23	1382988	4283980	XS1067654217	PA	4757				
SCAGY	I	2014/07/23	2014/07/23	1382989	4283980	XS1067654217	REG	7638				
SCAGY	I	2014/07/23	2014/07/23	1382991	4283980	XS1067654217	TST	3112				
SCAGY	I	2014/07/23	2014/07/23	1382992	4283980	XS1067654217	UNW	6292				
SCAGY	I	2014/07/23	2014/07/23	1382993	4283980	XS1067654217	GUR	6292	BPA			
SCAGY	I	2014/06/25	2014/06/25	1365940	4295411	XS1075043890	DEP	3317				
SCAGY	I	2014/08/25	2014/08/25	1408955	4295411	XS1075043890	BC	9404				
SCAGY	I	2014/08/25	2014/08/25	1408956	4295411	XS1075043890	CAL	26775				
SCAGY	I	2014/08/25	2014/08/25	1408957	4295411	XS1075043890	CUST	26775				
SCAGY	I	2014/08/25	2014/08/25	1408958	4295411	XS1075043890	MGR	3751				
SCAGY	I	2014/08/25	2014/08/25	1408959	4295411	XS1075043890	UNW	3751				
SCAGY	I	2014/08/25	2014/08/25	1408960	4295411	XS1075043890	GUR	3751	BPA			
SCAGY	I	2014/08/26	2014/08/26	1409476	4295411	XS1075043890	REG	26775				
SCAGY	I	2014/08/26	2014/08/26	1409477	4295411	XS1075043890	TST	26775				
EDI_ENDOFFILE
