EDI_CPOPN_20150818
TableName	Actflag	Created	Changed	CpopnID	SecID	CallPut	Notes
CPOPN	U	2010/12/06	2010/12/06	29252	2243998	P	
CPOPN	I	2010/08/06	2010/08/06	14487	834226	C	
CPOPN	U	2011/08/04	2014/03/19	1321	226087	C	
CPOPN	U	2015/06/24	2015/07/13	149874	300882	C	Optional Redemption by the Class E Subordinated Noteholders Subject to the conditions set out in Condition 7(b)(ii) (Conditions to Optional Redemption by the Class E Subordinated Noteholders), the Notes shall be redeemed by the Issuer (in whole but not in part) at the applicable Redemption Prices plus accrued unpaid interest thereon in accordance with the Priorities of Payment applied as if the Reinvestment Period had expired on any Payment Date after the end of the Non-Call Period at the direction of holders of the Class E Subordinated Notes, acting by Extraordinary Resolution.
CPOPN	I	2010/08/04	2010/08/04	6985	487696	P	
CPOPN	U	2013/12/21	2015/06/24	76136	190565	C	
CPOPN	U	2010/01/28	2014/05/08	6600	479718	P	
CPOPN	I	2014/10/08	2014/10/08	112342	475992	P	
CPOPN	I	2009/06/06	2009/06/06	1464	240544	C	
CPOPN	U	2009/10/05	2014/04/07	1434	236889	C	
CPOPN	I	2013/12/17	2013/12/17	75499	401529	C	
CPOPN	U	2011/01/13	2012/07/27	3788	362124	P	
CPOPN	I	2010/08/09	2010/08/09	2809	329197	P	
CPOPN	U	2009/06/23	2014/05/26	6922	485414	P	
CPOPN	U	2010/06/28	2014/04/21	3632	358841	C	
CPOPN	I	2014/05/21	2014/05/21	95024	360988	P	
CPOPN	U	2012/02/23	2014/01/14	6751	481631	P	
CPOPN	I	2009/06/15	2009/06/15	6575	478872	C	
CPOPN	I	2010/06/29	2010/06/29	2765	328170	C	
CPOPN	I	2010/06/29	2010/06/29	2886	332587	C	
CPOPN	I	2010/06/29	2010/06/29	2887	332587	P	
CPOPN	I	2012/09/19	2012/09/19	14874	843115	P	
CPOPN	I	2012/09/19	2012/09/19	7065	490447	P	
CPOPN	U	2010/07/19	2014/04/29	4609	384548	C	
CPOPN	U	2011/03/26	2011/03/26	4612	384561	P	
CPOPN	I	2009/06/11	2009/06/11	4099	365974	C	
CPOPN	I	2009/06/17	2009/06/17	3569	357559	C	
CPOPN	I	2009/06/17	2009/06/17	3570	357559	P	
CPOPN	U	2013/10/25	2013/10/25	54214	364563	C	
CPOPN	U	2013/10/25	2013/10/25	54215	364563	P	
CPOPN	I	2010/07/22	2010/07/22	5535	419838	P	
CPOPN	I	2010/07/20	2010/07/20	4615	384572	P	
CPOPN	I	2009/06/17	2009/06/17	7071	491020	C	
CPOPN	I	2009/06/18	2009/06/18	6896	484139	C	
CPOPN	I	2009/06/18	2009/06/18	6897	484139	P	
CPOPN	I	2012/02/27	2012/02/27	4663	388182	P	
CPOPN	U	2009/08/24	2015/04/27	8119	552958	C	Optional Redemption<BR> Optional Redemption by the Subordinated Noteholders , the Notes shall be redeemed by the Issuer (in whole but not in part) at the<BR>applicable Redemption Prices in accordance with the Priorities of Payments applied on any Payment Date after the end of the Non-Call Period.<BR><BR>Redemption upon Effective Date Rating Event In the event that as at the second Business Day prior to the Payment Date following the Effective Date and any Payment Date thereafter, an Effective Date Rating Event has occurred and is continuing, the Rated Notes shall be redeemed in accordance with the Priorities of Payments (including payment of all prior ranking amounts), on such Payment Date out of Interest Proceeds and thereafter out of Principal Proceeds, in each case, until redeemed in full or, if earlier, until an Effective Date Rating Event is no longer continuing.<BR><BR>Effective Date` means the earlier of:<BR>(a) the date designated for such purpose by the Investment Manager by written notice to the Trustee, the Issuer and the Collateral Administrator pursuant to the Investment Management Agreement; and<BR>(b) 12 March 2007.<BR><BR>Effective Date Rating Event` means:<BR>any of the Initial Ratings of the Rated Notes or Class V Combination Notes being downgraded or withdrawn
CPOPN	I	2014/03/31	2014/03/31	88792	405753	P	
CPOPN	I	2013/11/15	2013/11/15	71045	421668	P	
CPOPN	U	2010/12/07	2010/12/07	6303	453369	C	
CPOPN	I	2013/09/20	2013/09/20	6280	451640	P	
CPOPN	I	2015/07/30	2015/07/30	154722	486954	C	Rated Notes only, at the option of 50% of the Subordinated Noteholders on or after the expiry of the Refinancing Non-Call Period from the proceeds of the issuance of Replacement Notes
CPOPN	U	2011/03/01	2014/03/11	6956	486736	C	
CPOPN	I	2009/12/02	2009/12/02	7509	529854	P	
CPOPN	U	2014/11/19	2015/03/27	116291	472748	P	PLEASE BE ADVISED THAT AS PER THE TERMS AND CONDITIONS THE HOLDER MAY EXERCISE ITS OPTION TO PUT THE ISSUE (IN WHOLE BUT NOT IN PART)`ON ANY PAYMENT DATE BY GIVING NOT MORE THAN 40 BUSINESS DAYS, NOT LESS THAN 21 BUSINESS DAYS NOTICE TO THE ISSUER. <BR>PAYMENT DATE: 22 MARCH, 22 JUNE,`22 SEPTEMBER AND 22 DECEMBER IN`EACH YEAR.<BR><BR>Non-Call Period: The period from the Closing Date up to and<BR>including the Payment Date falling in December 2011<BR><BR>Upon the optional redemption in full by the Class C Noteholders after expiry of the Non-Call Period (asdefined herein) or upon the occurrence of a CollateralEvent or an Onshore Tax Event (as defined herein);<BR>
CPOPN	I	2012/07/30	2012/07/30	6184	446549	P	
CPOPN	I	2009/08/10	2009/08/10	8661	568361	C	
CPOPN	U	2009/09/17	2014/03/21	7649	533761	P	
CPOPN	I	2010/07/21	2010/07/21	7358	524385	C	
CPOPN	I	2011/12/06	2011/12/06	7359	524394	C	
CPOPN	U	2010/02/24	2014/03/27	7177	498872	C	
CPOPN	I	2009/06/17	2009/06/17	6737	481448	C	
CPOPN	U	2011/06/09	2014/04/15	19772	1436899	C	
CPOPN	I	2012/04/30	2012/04/30	8397	562956	C	
CPOPN	I	2010/03/18	2010/03/18	10415	621133	C	
CPOPN	I	2010/03/18	2010/03/18	10416	621133	P	
CPOPN	I	2010/03/09	2010/03/09	8959	581568	C	
CPOPN	I	2010/03/16	2010/03/16	8745	570591	C	
CPOPN	I	2013/11/26	2013/11/26	72458	561082	P	
CPOPN	U	2009/08/29	2014/02/04	9013	582686	C	
CPOPN	U	2009/08/29	2010/11/15	8861	574757	P	
CPOPN	I	2010/03/20	2010/03/20	9127	585326	C	
CPOPN	U	2009/09/01	2014/04/25	9347	589450	C	
CPOPN	I	2009/09/01	2009/09/01	9349	589453	C	
CPOPN	I	2009/09/03	2009/09/03	9604	596931	C	
CPOPN	I	2009/09/03	2009/09/03	9605	596931	P	
CPOPN	I	2010/03/27	2010/03/27	9438	591314	C	
CPOPN	I	2010/04/01	2010/04/01	9462	593196	C	
CPOPN	I	2010/04/01	2010/04/01	9461	593195	P	
CPOPN	I	2010/03/25	2010/03/25	9494	593644	C	
CPOPN	I	2009/09/02	2009/09/02	9608	597045	C	
CPOPN	I	2011/07/02	2011/07/02	9766	602535	C	
CPOPN	I	2009/06/24	2009/06/24	10993	636802	C	
CPOPN	I	2009/06/24	2009/06/24	10994	636802	P	
CPOPN	U	2009/09/07	2014/04/28	10977	636318	C	
CPOPN	U	2010/05/26	2010/05/27	10826	630103	P	
CPOPN	I	2010/07/08	2010/07/08	12290	712497	C	
CPOPN	I	2009/09/08	2009/09/08	12292	712505	C	
CPOPN	I	2009/09/08	2009/09/08	12293	712505	P	
CPOPN	U	2009/09/24	2014/08/14	14911	844122	C	
CPOPN	U	2009/09/24	2014/08/14	14912	844122	P	
CPOPN	I	2015/07/06	2015/07/06	151647	4326116	P	SUBORDINATED NOTEHOLDERS ACTING BY`EXTRAORDINARY RESOLUTION (AT LEAST`66 2/3 PCT OF THE TOTAL AMOUNT`OUTSTANDING), ON EACH 15 FEBRUARY`AND 15 AUGUST BY GIVING NOT LESS`THAN 31 CALENDAR DAYS PRIOR NOTICE.EARLY REDEMPTION AMOUNT WILL BE`DETERMINED BY CALCULATION AGENT.
CPOPN	I	2015/07/11	2015/07/13	152322	4120684	P	PUT OPTION DETAILS`PLEASE BE ADVISED THAT AS PER TERMS`AND CONDITIONS THE HOLDER MAY`EXERCISE ITS OPTION TO REDEEM THE`ISSUE AT ANY TIME BY GIVING NOT`LESS THAN 31 DAYS PRIOR NOTICE.
CPOPN	I	2014/07/23	2014/07/23	103576	4283980	P	
CPOPN	I	2014/08/26	2014/08/26	107568	4295411	P	
EDI_ENDOFFILE
