EDI_CNTR_20150818
TableName	Actflag	Created	Changed	CntrID	CentreName	CntryCD
CNTR	I	2007/04/09	2007/04/09	1	London	GB
CNTR	I	2007/04/09	2007/04/09	2	Paris	FR
CNTR	I	2007/04/10	2007/04/10	3	Amsterdam	NL
CNTR	I	2007/04/10	2007/04/10	4	Brussels	BE
CNTR	I	2007/04/10	2007/04/10	5	Luxembourg	LU
CNTR	I	2007/04/10	2007/04/10	6	Basel	CH
CNTR	I	2007/04/11	2007/04/11	7	Tokyo	JP
CNTR	I	2007/04/11	2007/04/11	8	New York	US
CNTR	I	2007/04/11	2007/04/11	9	Milan	IT
CNTR	I	2007/04/12	2007/04/12	10	TARGET	ZZ
CNTR	I	2007/04/12	2007/04/12	11	Frankfurt	DE
CNTR	I	2007/04/13	2007/04/13	12	Sydney	AU
CNTR	I	2007/04/13	2007/04/13	13	Adelaide	AU
CNTR	I	2007/04/13	2007/04/13	14	Melbourne	AU
CNTR	I	2007/04/13	2007/04/13	15	Hong Kong	HK
CNTR	I	2007/04/13	2007/04/13	16	Helsinki	FI
CNTR	I	2007/04/13	2007/04/13	17	Zurich	CH
CNTR	I	2007/04/17	2007/04/17	18	Stockholm	SE
CNTR	I	2007/04/17	2007/04/17	19	Copenhagen	DK
CNTR	I	2007/04/17	2007/04/17	20	Wellington	NZ
CNTR	I	2007/04/18	2007/04/18	21	Lisbon	PT
CNTR	I	2007/04/18	2007/04/18	22	Chicago	US
CNTR	I	2007/04/18	2007/04/18	23	Illinois	US
CNTR	I	2007/04/18	2007/04/18	24	Prague	CZ
CNTR	I	2007/04/18	2007/04/18	25	Madrid	ES
CNTR	I	2007/04/18	2007/04/18	26	Kuala Lumpur	MY
CNTR	I	2007/04/18	2007/04/18	27	Athens	GR
CNTR	I	2007/04/23	2007/04/23	28	Geneva	CH
CNTR	I	2007/04/23	2007/04/23	29	Toronto	CA
CNTR	I	2007/04/23	2007/04/23	30	Dublin	IE
CNTR	I	2007/04/23	2007/04/23	31	Munich	DE
CNTR	I	2007/04/23	2007/04/23	32	Vienna	AT
CNTR	I	2007/04/23	2007/04/23	33	Warsaw	PL
CNTR	I	2007/04/23	2007/04/23	34	Rome	IT
CNTR	U	2007/04/28	2009/09/10	35	Oslo	NO
CNTR	I	2007/04/28	2007/04/28	36	Johannesburg	ZA
CNTR	I	2007/04/30	2007/04/30	37	Texas	US
CNTR	I	2007/04/30	2007/04/30	38	Houston	US
CNTR	I	2007/05/04	2007/05/04	39	Montreal	CA
CNTR	I	2007/05/04	2007/05/04	40	Berne	DE
CNTR	I	2007/05/04	2007/05/04	41	Dusseldorf	DE
CNTR	I	2007/05/04	2007/05/04	42	Taipei	TW
CNTR	I	2007/05/04	2007/05/04	43	Bartislava	SK
CNTR	I	2007/05/07	2007/05/07	44	Singapore	SG
CNTR	I	2007/05/12	2007/05/12	45	Seoul	KR
CNTR	I	2007/05/12	2007/05/12	46	Labuan	MY
CNTR	I	2007/05/15	2007/05/15	47	Guernsey	GG
CNTR	I	2007/05/18	2007/05/18	48	Auckland	NZ
CNTR	I	2007/05/29	2007/05/29	49	Vancouver	CA
CNTR	I	2007/05/29	2007/05/29	50	Wilmington	US
CNTR	I	2007/05/29	2007/05/29	51	Pretoria	ZA
CNTR	U	2007/05/29	2007/05/31	52	Delaware	US
CNTR	I	2007/05/31	2007/05/31	53	Bern	CH
CNTR	I	2007/05/31	2007/05/31	54	Charlotte	US
CNTR	I	2007/05/31	2007/05/31	55	Moscow	RU
CNTR	I	2007/05/31	2007/05/31	56	Jersey	GG
CNTR	I	2007/05/31	2007/05/31	57	Virginia	US
CNTR	I	2007/06/04	2007/06/04	58	LIMA	PE
CNTR	I	2007/06/07	2007/06/07	59	Istanbul	TR
CNTR	I	2007/06/15	2007/06/15	60	Reykjavik	IS
CNTR	I	2007/06/15	2007/06/15	61	Barcelona	ES
CNTR	I	2007/06/15	2007/06/15	62	Bermuda	BM
CNTR	I	2007/06/16	2007/06/16	63	Minneapolis	US
CNTR	I	2007/06/16	2007/06/16	64	Minnesota	US
CNTR	I	2007/06/22	2007/06/22	65	Buenos Aries	AR
CNTR	I	2007/06/22	2007/06/22	66	Atyrau	KZ
CNTR	I	2007/06/22	2007/06/22	67	Jakarta	ID
CNTR	I	2007/07/04	2007/07/04	68	Ontario	CA
CNTR	I	2007/07/04	2007/07/04	69	Turin	IT
CNTR	I	2007/07/12	2007/07/12	70	Mumbai	IN
CNTR	I	2007/07/12	2007/07/12	71	Mexico City	MX
CNTR	I	2007/07/12	2007/07/12	72	Cairo	EG
CNTR	I	2007/07/12	2007/07/12	73	Bucharest	RO
CNTR	I	2007/07/20	2007/07/20	74	Sao Paulo	BR
CNTR	D	2007/07/20	2014/04/02	75	Kyiv	UA
CNTR	I	2007/07/21	2007/07/21	76	Los Angeles	US
CNTR	I	2007/07/25	2007/07/25	77	Budapest	HU
CNTR	U	2007/08/07	2007/12/18	78	Hyderabad	IN
CNTR	I	2007/08/07	2007/08/07	79	Belize	BZ
CNTR	I	2007/08/20	2007/08/20	80	Almaty	KZ
CNTR	I	2007/08/23	2007/08/23	81	Kiel	DE
CNTR	I	2007/08/23	2007/08/23	82	Cayman Islands	KY
CNTR	D	2007/09/22	2014/09/23	83	South Dakota	US
CNTR	I	2007/09/22	2007/09/22	84	Cape Town	ZA
CNTR	I	2007/09/25	2007/09/25	85	Caracas	VE
CNTR	I	2007/10/15	2007/10/15	86	Brisbane	AU
CNTR	I	2007/10/15	2007/10/15	87	San Francisco	US
CNTR	I	2007/10/30	2007/10/30	88	Macau	CN
CNTR	I	2007/11/03	2007/11/03	89	Bogota	CO
CNTR	I	2007/11/03	2007/11/03	90	Santo Domingo	DO
CNTR	I	2007/11/26	2007/11/26	91	Parma	IT
CNTR	I	2007/12/03	2007/12/03	92	Brimingham	US
CNTR	I	2007/12/03	2007/12/03	93	Dubai	AE
CNTR	I	2007/12/18	2007/12/18	94	Birmingham	US
CNTR	I	2007/12/18	2007/12/18	95	Springfield	US
CNTR	I	2007/12/18	2007/12/18	96	Salt Lake City	US
CNTR	I	2007/12/18	2007/12/18	97	Pune	IN
CNTR	I	2007/12/18	2007/12/18	98	Florence	IT
CNTR	I	2008/01/07	2008/01/07	99	Birdgetown	BB
CNTR	I	2008/01/07	2008/01/07	100	McLean	US
CNTR	I	2008/01/07	2008/01/07	101	Newark	US
CNTR	I	2008/01/07	2008/01/07	102	Richmond	US
CNTR	I	2008/01/15	2008/01/15	103	Columbia	US
CNTR	I	2008/01/15	2008/01/15	104	Boston	US
CNTR	I	2008/01/15	2008/01/15	105	Cincinnati	US
CNTR	I	2008/01/15	2008/01/15	106	Falls Church	US
CNTR	I	2008/01/25	2008/01/25	107	Ljubljana	SI
CNTR	I	2008/01/30	2008/01/30	108	San Salvador	SV
CNTR	D	2008/01/30	2014/09/23	109	Taiwan	TW
CNTR	I	2008/02/04	2008/02/04	110	Brasilia	BR
CNTR	I	2008/02/04	2008/02/04	111	Rio de Janeiro	BR
CNTR	I	2008/08/02	2008/08/02	112	Hanoi	VN
CNTR	I	2008/08/02	2008/08/02	113	Kampala	UG
CNTR	I	2008/08/02	2008/08/02	114	New Delhi	IN
CNTR	I	2008/08/02	2008/08/02	115	Kuwait	KW
CNTR	I	2008/08/02	2008/08/02	116	Grand Cayman	KY
CNTR	I	2008/08/02	2008/08/02	117	Manila	PH
CNTR	I	2008/08/02	2008/08/02	118	Riyadh	SA
CNTR	I	2008/08/02	2008/08/02	119	Manama	BH
CNTR	I	2008/08/02	2008/08/02	120	Jacksonville	US
CNTR	I	2008/11/06	2008/11/06	121	Bratislava	SK
CNTR	I	2008/11/06	2008/11/06	122	British Virgin Islands	VG
CNTR	I	2008/11/07	2008/11/07	123	Atlanta	US
CNTR	I	2008/11/11	2008/11/11	124	Philadelphia	US
CNTR	I	2008/11/24	2008/11/24	125	Pittsburgh	US
CNTR	D	2008/11/24	2014/09/23	126	Pennsylvania	US
CNTR	I	2008/12/10	2008/12/10	127	Stuttgart	DE
CNTR	I	2009/02/11	2009/02/11	128	Manhattan	US
CNTR	D	2009/02/11	2014/08/20	129	Canada	CA
CNTR	D	2009/02/11	2014/08/04	130	China	CN
CNTR	I	2009/03/02	2009/03/02	131	Panama	PA
CNTR	I	2009/03/02	2009/03/02	132	Columbus	US
CNTR	I	2009/03/02	2009/03/02	133	Kansas City	US
CNTR	I	2009/03/02	2009/03/02	134	Karachi	PK
CNTR	I	2009/03/02	2009/03/02	135	Ho Chi Minh	VN
CNTR	I	2009/03/02	2009/03/02	136	Lagos	NG
CNTR	I	2009/03/16	2009/03/16	137	Vaduz	LI
CNTR	I	2009/03/16	2009/03/16	138	Lansing	US
CNTR	I	2009/03/16	2009/03/16	139	Detroit	US
CNTR	I	2009/03/16	2009/03/16	140	Quebec	CA
CNTR	I	2009/06/26	2009/06/26	141	Baltimore	US
CNTR	I	2009/06/26	2009/06/26	142	Miami	US
CNTR	I	2009/06/26	2009/06/26	143	Sacramento	US
CNTR	I	2009/06/26	2009/06/26	144	Olymmpia	US
CNTR	I	2009/06/26	2009/06/26	145	Calgary	CA
CNTR	I	2009/08/10	2009/08/10	146	Dallas	US
CNTR	I	2009/08/10	2009/08/10	147	Dover	US
CNTR	I	2009/08/10	2009/08/10	148	Trenton	US
CNTR	I	2009/08/10	2009/08/10	149	Washington	US
CNTR	I	2009/08/10	2009/08/10	150	Colorado	US
CNTR	I	2009/08/10	2009/08/10	151	Maryland	US
CNTR	I	2009/08/10	2009/08/10	152	Hamburg	DE
CNTR	I	2009/08/10	2009/08/10	153	Astana	KZ
CNTR	I	2009/08/10	2009/08/10	154	Beijing	CN
CNTR	I	2009/08/10	2009/08/10	155	Cologne	DE
CNTR	I	2009/08/10	2009/08/10	156	Seattle	US
CNTR	I	2009/08/10	2009/08/10	157	Abu dhabi	AE
CNTR	I	2009/08/10	2009/08/10	158	Shanghai	CN
CNTR	I	2009/08/10	2009/08/10	159	Shenzhen	CN
CNTR	I	2009/08/10	2009/08/10	160	Baton Rouge	US
CNTR	I	2009/08/10	2009/08/10	161	Nassau	BS
CNTR	I	2009/08/10	2009/08/10	162	Curacao	AN
CNTR	I	2009/08/10	2009/08/10	163	Jeddah	SA
CNTR	I	2009/08/10	2009/08/10	164	Edinburgh	GB
CNTR	I	2009/08/10	2009/08/10	165	Georgetown	US
CNTR	I	2009/08/10	2009/08/10	166	Kolkata	IN
CNTR	I	2009/09/10	2009/09/10	167	San Jose	CR
CNTR	I	2009/09/10	2009/09/10	168	Accra	GH
CNTR	I	2009/09/10	2009/09/10	169	Bangalore	IN
CNTR	I	2009/09/10	2009/09/10	170	Denver	US
CNTR	I	2009/09/10	2009/09/10	171	Hamilton	CA
CNTR	I	2009/09/10	2009/09/10	172	Java	ID
CNTR	I	2009/09/10	2009/09/10	173	Kiev	UA
CNTR	I	2009/09/10	2009/09/10	174	Lusaka	ZM
CNTR	I	2009/09/10	2009/09/10	175	Makati	PH
CNTR	I	2009/09/10	2009/09/10	176	Massachusetts	US
CNTR	I	2009/09/10	2009/09/10	177	Muscat	OM
CNTR	I	2009/09/10	2009/09/10	178	Pasig	PH
CNTR	I	2009/09/10	2009/09/10	179	Phoenix	US
CNTR	I	2009/09/10	2009/09/10	180	Santa Ana	US
CNTR	I	2009/09/10	2009/09/10	181	Santiago	CL
CNTR	I	2009/09/10	2009/09/10	182	Sofia	BG
CNTR	I	2009/09/10	2009/09/10	183	St Helier	JE
CNTR	I	2009/09/10	2009/09/10	184	Tel Aviv	IL
CNTR	I	2009/09/10	2009/09/10	185	Vilnius	LT
CNTR	I	2009/09/10	2009/09/10	186	St Paul	US
CNTR	I	2009/09/15	2009/09/15	187	Nicosia	CY
CNTR	I	2009/09/15	2009/09/15	188	Osaka	JP
CNTR	I	2009/09/29	2009/09/29	189	Ancona	IT
CNTR	I	2009/09/29	2009/09/29	190	Ankara	TR
CNTR	I	2009/09/29	2009/09/29	191	Bangkok	TH
CNTR	I	2009/09/29	2009/09/29	192	Beirut	LB
CNTR	I	2009/09/29	2009/09/29	193	Brescia	IT
CNTR	I	2009/09/29	2009/09/29	194	Casablanca	MA
CNTR	D	2009/09/29	2014/09/23	195	North Carolina	US
CNTR	I	2009/09/29	2009/09/29	196	Palermo	IT
CNTR	I	2009/09/29	2009/09/29	197	Rabat	MA
CNTR	I	2009/09/29	2009/09/29	198	Siena	IT
CNTR	I	2009/10/20	2009/10/20	199	Baden Baden	DE
CNTR	I	2009/10/20	2009/10/20	200	Canberra	AU
CNTR	I	2009/10/20	2009/10/20	201	Carson	US
CNTR	I	2009/10/20	2009/10/20	202	Doha	QA
CNTR	I	2009/10/20	2009/10/20	203	Glens Falls	US
CNTR	I	2009/10/20	2009/10/20	204	Nashville	US
CNTR	I	2009/10/27	2009/10/27	205	Zagreb	HR
CNTR	I	2009/11/03	2009/11/03	206	Juno Beach	US
CNTR	I	2009/11/03	2009/11/03	207	Irving	US
CNTR	I	2009/11/20	2009/11/20	208	Charleston	US
CNTR	I	2009/12/19	2009/12/19	209	Perth	AU
CNTR	U	2009/12/19	2009/12/22	210	California	US
CNTR	I	2009/12/19	2009/12/19	211	Cleveland	US
CNTR	I	2009/12/19	2009/12/19	212	Green Bay	US
CNTR	I	2009/12/19	2009/12/19	213	Hartford	US
CNTR	I	2009/12/19	2009/12/19	214	Winnipeg	CA
CNTR	I	2009/12/19	2009/12/19	215	Winston-Salem	US
CNTR	I	2009/12/19	2009/12/19	216	Funchal	PT
CNTR	I	2009/12/19	2009/12/19	217	Madeira	PT
CNTR	I	2009/12/19	2009/12/19	218	Waterbury	US
CNTR	I	2009/12/19	2009/12/19	219	Welland	CA
CNTR	I	2009/12/19	2009/12/19	220	Bonn	DE
CNTR	I	2009/12/21	2009/12/21	221	Valletta	MT
CNTR	I	2010/02/01	2010/02/01	222	Las Vegas	US
CNTR	I	2010/02/01	2010/02/01	223	Rocklin	US
CNTR	I	2010/04/02	2010/04/02	224	Thiruvananthapuram	IN
CNTR	I	2010/04/16	2010/04/16	225	Chennai	IN
CNTR	I	2010/04/16	2010/04/16	226	Patiala	IN
CNTR	I	2010/04/21	2010/04/21	227	Kolhapur	IN
CNTR	I	2010/04/22	2010/04/22	228	Udaipur	IN
CNTR	I	2010/04/22	2010/04/22	229	Gandhinagar	IN
CNTR	I	2010/04/22	2010/04/22	230	Kochi	IN
CNTR	I	2010/04/22	2010/04/22	231	Gurgaon	IN
CNTR	I	2010/04/22	2010/04/22	232	Edmonton	CA
CNTR	I	2010/04/22	2010/04/22	233	Aluva	IN
CNTR	I	2010/04/22	2010/04/22	234	Bridgetown	BB
CNTR	I	2010/04/22	2010/04/22	235	Manipal	IN
CNTR	I	2010/04/22	2010/04/22	236	Jefferson	US
CNTR	I	2010/04/22	2010/04/22	237	Gaborone	BW
CNTR	I	2010/04/22	2010/04/22	238	Tbilisi	GE
CNTR	I	2010/04/22	2010/04/22	239	Verona	IT
CNTR	I	2010/04/22	2010/04/22	240	Nice	FR
CNTR	I	2010/04/22	2010/04/22	241	Naples	IT
CNTR	I	2010/04/22	2010/04/22	242	Havana	CU
CNTR	I	2010/04/22	2010/04/22	243	Halifax	CA
CNTR	I	2010/04/22	2010/04/22	244	Genoa	IT
CNTR	I	2010/04/22	2010/04/22	245	Chieti	IT
CNTR	I	2010/04/22	2010/04/22	246	Cesena	IT
CNTR	I	2010/04/22	2010/04/22	247	Campodarsego	IT
CNTR	I	2010/04/22	2010/04/22	248	Bari	IT
CNTR	I	2010/04/22	2010/04/22	249	Baku	AZ
CNTR	I	2010/05/27	2010/05/27	250	Jaipur	IN
CNTR	I	2010/05/27	2010/05/27	251	Indore	IN
CNTR	I	2010/05/27	2010/05/27	252	Bhubaneswar	IN
CNTR	I	2010/05/27	2010/05/27	253	Satara	IN
CNTR	I	2010/05/27	2010/05/27	254	San Juan	US
CNTR	I	2010/09/07	2010/09/07	255	Chandigarh	IN
CNTR	I	2010/11/04	2010/11/04	256	Albany	US
CNTR	I	2010/11/10	2010/11/10	257	Colombo	LK
CNTR	U	2010/12/09	2010/12/09	258	Abuja	NG
CNTR	U	2011/03/10	2011/03/10	259	Belgrade	RS
CNTR	U	2011/03/16	2011/03/16	260	Christchurch	NZ
CNTR	U	2011/03/16	2011/03/16	261	Rapid	US
CNTR	U	2011/03/16	2011/03/16	262	St Peter Port	GG
CNTR	U	2011/03/16	2011/03/16	263	Port of Spain	TT
CNTR	I	2011/06/03	2011/06/03	264	Honiara	SB
CNTR	I	2011/06/07	2011/06/07	265	Antwerp	BE
CNTR	I	2011/07/14	2011/07/14	266	Sharjah	AE
CNTR	I	2011/08/02	2011/08/02	267	Ahmedabad	IN
CNTR	I	2011/08/12	2011/08/12	268	Banjul	GM
CNTR	I	2011/08/22	2011/08/22	269	Maseru	LS
CNTR	I	2011/08/22	2011/08/22	270	Kanpur	IN
CNTR	I	2011/08/22	2011/08/22	271	Jackson	US
CNTR	I	2011/09/08	2011/09/08	272	Fort Worth	US
CNTR	I	2011/09/08	2011/09/08	273	Hanover	DE
CNTR	I	2011/09/23	2011/09/23	274	Vadodara	IN
CNTR	I	2011/09/28	2011/09/28	275	Oklahoma	US
CNTR	I	2011/10/13	2011/10/13	276	Berlin	DE
CNTR	I	2011/11/09	2011/11/09	277	Shillong	IN
CNTR	I	2012/02/14	2012/02/14	278	Lafayette	US
CNTR	I	2012/02/22	2012/02/22	279	Montevideo	UY
CNTR	I	2012/03/27	2012/03/27	280	Faridabad	IN
CNTR	I	2012/03/27	2012/03/27	281	Thrissur	IN
CNTR	I	2012/03/31	2012/03/31	282	Pierre	US
CNTR	I	2012/03/31	2012/03/31	283	Hobart	AU
CNTR	I	2012/04/02	2012/04/02	284	Tallahassee	US
CNTR	I	2012/04/05	2012/04/05	285	Amman	JO
CNTR	I	2012/04/06	2012/04/06	286	Milford	US
CNTR	I	2012/04/23	2012/04/23	287	Dar es Salaam	TZ
CNTR	I	2012/04/28	2012/04/28	288	Belfast	IE
CNTR	I	2012/05/01	2012/05/01	289	Austin	US
CNTR	I	2012/05/11	2012/05/11	290	Chhattisgarh	IN
CNTR	I	2012/05/21	2012/05/21	291	Toledo	US
CNTR	I	2012/05/22	2012/05/22	292	Ottawa	CA
CNTR	I	2012/05/24	2012/05/24	293	Ulan Bator	MN
CNTR	I	2012/06/04	2012/06/04	294	Alicante	ES
CNTR	I	2012/06/08	2012/06/08	295	Nagpur	IN
CNTR	I	2012/06/16	2012/06/16	296	Medellin	CO
CNTR	I	2012/06/20	2012/06/20	297	Findlay	US
CNTR	I	2012/07/30	2012/07/30	298	Franklin	US
CNTR	I	2012/08/01	2012/08/01	299	Minsk	BY
CNTR	I	2012/09/04	2012/09/04	300	Karlsruhe	DE
CNTR	D	2012/09/07	2012/09/07	301	Saint Paul	US
CNTR	I	2012/09/07	2012/09/07	302	Douglas	IM
CNTR	I	2012/09/10	2012/09/10	303	Boise	US
CNTR	I	2012/09/18	2012/09/18	304	Marshall	US
CNTR	I	2012/10/02	2012/10/02	305	Indianapolis	US
CNTR	I	2013/01/07	2013/01/07	306	Luanda	AO
CNTR	I	2013/02/19	2013/02/19	307	Tobago	TT
CNTR	I	2013/02/19	2013/02/19	308	Tortola	VG
CNTR	I	2013/02/19	2013/02/19	309	Abidjan	CI
CNTR	I	2013/02/19	2013/02/19	310	Bristol	GB
CNTR	I	2013/02/19	2013/02/19	311	Monterrey	MX
CNTR	I	2013/02/19	2013/02/19	312	Nairobi	KE
CNTR	I	2013/02/19	2013/02/19	313	Rotterdam	NL
CNTR	I	2013/02/19	2013/02/19	314	Sabah	MY
CNTR	I	2013/02/19	2013/02/19	315	Treviso	IT
CNTR	I	2013/02/27	2013/02/27	316	Cardiff	GB
CNTR	I	2013/03/12	2013/03/12	317	Wuppertal	DE
CNTR	I	2013/03/29	2013/03/29	318	Tirana	AL
CNTR	I	2013/04/06	2013/04/06	319	New Orleans	US
CNTR	I	2013/05/21	2013/05/21	320	Kigali	RW
CNTR	I	2013/05/29	2013/05/29	321	Vladivostok	RU
CNTR	I	2013/05/30	2013/05/30	322	Saskatoon	CA
CNTR	I	2013/06/10	2013/06/10	323	Pasay	PH
CNTR	I	2013/08/07	2013/08/07	324	Varanasi	IN
CNTR	I	2013/08/08	2013/08/08	325	Port Louis	MU
CNTR	I	2013/08/14	2013/08/14	326	Golden	US
CNTR	I	2013/08/28	2013/08/28	327	Regina	CA
CNTR	I	2013/09/02	2013/09/02	328	Fortaleza	BR
CNTR	I	2013/09/05	2013/09/05	329	Memphis	US
CNTR	I	2013/09/13	2013/09/13	330	Utrecht	NL
CNTR	I	2013/09/18	2013/09/18	331	St. Louis	US
CNTR	I	2013/10/02	2013/10/02	332	San Antonio	US
CNTR	I	2013/10/03	2013/10/03	333	Porto Alegre	BR
CNTR	I	2013/10/11	2013/10/11	334	Tulsa	US
CNTR	I	2013/10/15	2013/10/15	335	Des Moines	US
CNTR	I	2013/11/20	2013/11/20	336	Windhoek	NA
CNTR	I	2013/11/27	2013/11/27	337	Maputo	MZ
CNTR	I	2013/12/03	2013/12/03	338	Victoria	CA
CNTR	I	2014/01/30	2014/01/30	339	Riga	LV
CNTR	I	2014/02/01	2014/02/01	340	Linz	AT
CNTR	I	2014/04/15	2014/04/15	341	Karur	IN
CNTR	I	2014/04/17	2014/04/17	342	Kingston	JM
CNTR	I	2014/05/15	2014/05/15	343	Leawood	US
CNTR	I	2014/05/15	2014/05/15	344	Burgos	ES
CNTR	I	2014/05/21	2014/05/21	345	Visakhapatnam	IN
CNTR	I	2014/05/21	2014/05/21	346	Kottayam	IN
CNTR	I	2014/05/30	2014/05/30	347	Dhaka	BD
CNTR	I	2014/09/24	2014/09/24	348	Raleigh	US
CNTR	I	2014/09/29	2014/09/29	349	Phnom Penh	KH
CNTR	I	2014/09/30	2014/09/30	350	Lancaster	US
CNTR	I	2014/10/01	2014/10/01	351	Harrisburg	US
CNTR	I	2014/10/06	2014/10/06	352	Yerevan	AM
CNTR	U	2014/11/15	2014/11/17	353	St. John`s	CA
CNTR	I	2014/12/05	2014/12/05	354	Quito	EC
CNTR	I	2015/01/21	2015/01/21	355	Shimla	IN
CNTR	I	2015/01/28	2015/01/28	356	Santa Clara	US
CNTR	I	2015/02/04	2015/02/04	357	Knoxville	US
CNTR	I	2015/04/03	2015/04/03	358	Tegucigalpa	HN
CNTR	I	2015/04/25	2015/04/27	359	Raipur	IN
CNTR	I	2015/05/21	2015/05/21	360	Canton	US
CNTR	I	2015/05/25	2015/05/25	361	Noida	IN
CNTR	I	2015/06/26	2015/06/26	362	Managua	NI
CNTR	I	2015/06/30	2015/06/30	363	Bishkek	KG
CNTR	I	2015/08/12	2015/08/12	364	Jerusalem	IL
EDI_ENDOFFILE
