EDI_IFCHG_20150818
TableName	Actflag	Created	Changed	IfchgID	SecID	ISIN	NotificationDate	OldIntPayFrqncy	OldIntPayDate1	OldIntPayDate2	OldIntPayDate3	OldIntPayDate4	NewIntPayFrqncy	NewIntPayDate1	NewIntPayDate2	NewIntPayDate3	NewIntPayDate4	Eventtype
IFCHG	I	2007/03/21	2007/03/21	6259	491020	XS0254054553	2006/06/29	SMA	2901	2907			ANL					CORR
IFCHG	I	2007/03/22	2007/03/22	6264	484139	XS0254058034	2006/06/29	SMA	2901	2907			ANL	2901				CORR
IFCHG	I	2007/03/23	2007/03/23	8749	552958	XS0261227325	2006/09/12	SMA	1203	1209			ANL	1203				CORR
IFCHG	I	2007/06/12	2007/06/12	17567	486736	XS0272582395	2007/11/16	SMA	1601	1607			ANL	1607				IFCHG
IFCHG	I	2007/07/07	2007/07/07	18255	602535	XS0305646183	2007/07/10	ANL	1502									CORR
IFCHG	I	2007/09/12	2007/09/12	19779	602535	XS0305646183	2007/07/11	ANL	1502				SMA					CORR
IFCHG	I	2007/10/12	2007/10/12	20626	636802	XS0308771012	2007/08/01	ANL	3101				SMA					CORR
IFCHG	I	2007/10/29	2007/10/29	21669	630103	XS0313392432	2007/08/16	ANL	3103				SMA					CORR
IFCHG	I	2007/11/08	2007/11/08	22308	570591	XS0291367182	2007/03/30	ANL					QTR	2704	2707	2710	2701	CORR
IFCHG	I	2007/11/13	2007/11/13	22555	597045	XS0299446442	2007/05/19	ANL					QTR	1508	1511	1502	1505	CORR
IFCHG	I	2007/11/13	2007/11/13	22595	589453	XS0294337984	2007/04/25	ANL	2410				QTR	2410	2401	2404	2407	CORR
IFCHG	I	2007/11/16	2007/11/16	22887	593196	XS0297939307	2007/05/25	ANL	2008				SMA					CORR
IFCHG	U	2007/11/16	2009/06/24	22889	593208	XS0298609719	2007/05/28	ANL	2008				SMA					CORR
IFCHG	I	2007/11/16	2007/11/16	22892	593195	XS0297940149	2007/05/25	ANL	2008				SMA					CORR
IFCHG	I	2007/11/22	2007/11/22	23609	574757	XS0292715009	2007/04/05	ANL	1710				SMA	1710	1704			CORR
IFCHG	I	2007/12/01	2007/12/01	24651	636318	XS0311203813	2007/08/01	ANL	2012				QTR	2012	2003	2006	2009	CORR
IFCHG	I	2007/12/04	2007/12/04	24974	591314	XS0296313017	2007/05/09	ANL	2211				QTR	2210	2201	2201	2207	CORR
IFCHG	I	2007/12/04	2007/12/04	25020	589450	XS0294336820	2007/04/25	ANL	2410				QTR	2410	2401	2404	2407	CORR
IFCHG	I	2007/12/05	2007/12/05	25275	582686	XS0292636395	2007/05/09	ANL	3001				SMA	3001	3007			CORR
IFCHG	I	2008/02/18	2008/02/18	29378	423001	ES0377952025	2005/12/02	TRM					QTR					CLEAN
IFCHG	I	2008/02/21	2008/02/21	29698	591314	XS0296313017	2007/05/10	QTR	2210	2201	2201	2207	QTR	2201	2204	2207	2210	CORR
IFCHG	I	2008/05/08	2008/05/08	31809	712505	XS0322039149	2007/10/20	ANL	1505				SMA	1505	1511			CORR
IFCHG	I	2009/06/11	2009/06/11	46137	365974	XS0247636334	2006/04/21	SMA	0806	0812			SMA	0812	0806			CORR
IFCHG	I	2009/06/15	2009/06/15	46440	478872	XS0237518955	2005/12/15	ANL	1507				SMA	1507	1501			CORR
IFCHG	I	2009/06/17	2009/06/17	46648	481448	XS0279707961	2006/12/22	ANL	2109				SMA	2109	2103			CORR
IFCHG	I	2009/06/17	2009/06/17	46666	491020	XS0254054553	2006/06/30	ANL					SMA	2901	2907			CORR
IFCHG	I	2009/07/11	2009/07/11	48616	581568	XS0290390110	2007/06/19	ANL	1806				SMA					CORR
IFCHG	I	2009/07/24	2009/07/24	49796	593196	XS0297939307	2007/05/26	SMA					SMA	2411	2405			CORR
IFCHG	I	2009/07/30	2009/07/30	50823	486736	XS0272582395	2007/11/17	ANL	1607				SMA	1607	1601			CORR
IFCHG	I	2009/08/10	2009/08/10	51681	568361	XS0277024658	2006/12/21	ANL	1506				SMA	3107	3101			CORR
IFCHG	I	2009/08/24	2009/08/24	52246	552958	XS0261227325	2006/09/13	ANL	1203				SMA	1203	1209			CLEAN
IFCHG	I	2009/09/03	2009/09/03	52768	596931	XS0294790547	2007/05/18	ANL	2401				SMA	2401	2407			CORR
IFCHG	I	2009/09/05	2009/09/05	52974	602535	XS0305646183	2007/07/12	SMA					SMA	1502	1508			CLEAN
IFCHG	I	2009/09/17	2009/09/17	53737	533761	XS0277789094	2006/12/14	SMA	1303	1309			SMA	1309	1303			CORR
IFCHG	I	2009/10/05	2009/10/05	54666	236889	XS0216426063	2005/04/13	QTR	0707	0710	0701	0704	QTR	0710	0701	0704	0707	CORR
IFCHG	I	2009/10/05	2009/10/05	54673	236894	XS0216427384	2005/04/13	QTR	0707	0710	0701	0704	QTR	0710	0701	0704	0707	CORR
IFCHG	I	2010/01/13	2010/01/13	59130	585326	XS0292918884	2007/04/05	ANL	1801				SMA					CORR
IFCHG	I	2010/02/24	2010/02/24	60598	498872	XS0278469803	2007/01/28	ANL	2509				SMA	2509	2503			CORR
IFCHG	I	2010/03/09	2010/03/09	61042	581568	XS0290390110	2007/06/20	SMA					SMA	2006	2012			CORR
IFCHG	I	2010/03/09	2010/03/09	61056	562956	XS0287420888	2007/02/22	ANL	1008				QTR	1008	1011	1002	1005	CORR
IFCHG	I	2010/03/20	2010/03/20	61505	585326	XS0292918884	2007/04/06	SMA					SMA	1801	1807			CORR
IFCHG	I	2010/03/24	2010/03/24	61739	593644	XS0298497495	2007/05/02	ANL	1011				SMA	1011	1005			CLEAN
IFCHG	I	2010/03/27	2010/03/27	62061	591314	XS0296313017	2007/05/11	QTR	2201	2204	2207	2210	QTR	2210	2201	2204	2207	CORR
IFCHG	I	2010/05/26	2010/05/26	64366	630103	XS0313392432	2007/08/17	SMA					SMA	1504	1510			CORR
IFCHG	I	2010/07/08	2010/07/08	65815	712497	XS0322031245	2007/10/20	ANL	1505				SMA	1505	1511			CORR
IFCHG	I	2010/07/19	2010/07/19	66735	384548	XS0244742911	2006/05/19	QTR	1802	1805	1808	1811	QTR	1811	1802	1805	1808	CORR
IFCHG	I	2010/08/04	2010/08/04	67551	487696	XS0196449366	2004/08/06	SMA					SMA	1504	1510			CORR
IFCHG	U	2010/12/07	2010/12/07	70875	453369	XS0268819868	2006/10/17	SMA	1601	1607			SMA	1607	1601			CORR
IFCHG	I	2011/04/29	2011/04/29	74887	643842	XS0309841376	2007/08/02	ANL					SMA	2904	2910			CORR
IFCHG	I	2011/08/04	2011/08/04	77572	226087	XS0145222120	2002/04/11	QTR	1512	1503	1506	1509	QTR	1509	1512	1503	1506	CORR
IFCHG	I	2012/02/11	2012/02/11	83605	641946	XS0311179922	2007/08/09	ANL					SMA	0802	0808			CORR
IFCHG	I	2012/06/16	2012/06/16	89534	423001	ES0377952025	2005/12/03	QTR					QTR	2203	2206	2209	2212	CORR
IFCHG	I	2013/11/18	2013/11/18	108549	489729	XS0137994660	2001/11/16	SMA					SMA	1511	1505			CORR
IFCHG	I	2015/07/01	2015/07/01	134167	484144	XS0137996954	2001/11/16	SMA	1511	1505			SMA	1505	1511			CORR
EDI_ENDOFFILE
