EDI_SCEXH_20150818
TableName	Actflag	Created	Changed	ScExhID	SecID	ISIN	ExchgCD	ListStatus	Lot	MinTrdgQty	ListDate	DelistDate	LocalCode	JunkLocalcode	PriceTick	TickSize	Notes
SCEXH	I	2009/05/25	2009/05/25	1918537	1437557	ES0312378013	ESAIAF	N									
SCEXH	I	2011/12/19	2011/12/19	4806312	640782	ES0345671053	ESAIAF	N									
SCEXH	I	2007/08/09	2007/08/09	755070	640782	ES0345671053	ESMSE	N									
SCEXH	I	2011/12/19	2011/12/19	4806474	423001	ES0377952025	ESAIAF	N									
SCEXH	I	2006/10/14	2006/10/14	564464	423001	ES0377952025	ESMSE	N									
SCEXH	U	2010/12/06	2010/12/06	3141440	2243998	KYG4425Q1047	KYBND	N									
SCEXH	I	2010/07/31	2010/07/31	2796670	2035118	USG16160AL09	USBND	N									
SCEXH	U	2006/08/15	2006/12/22	541043	400650	USG16374AB94	IEISE		100								
SCEXH	I	2007/08/14	2007/08/14	757071	643767	USG36592AB23	IEISE	N									
SCEXH	I	2011/05/28	2011/05/28	3867537	2723292	USG39165AA66	KYSX	N									
SCEXH	I	2006/10/07	2006/10/07	562423	420976	USG5387WAD68	KYSX	N									
SCEXH	I	2006/10/02	2006/10/02	559918	418578	USG7456CAC40	IEISE	N	100								
SCEXH	I	2008/05/06	2008/05/06	915902	834226	USG8993BAA82	IEISE	N	100								
SCEXH	U	2010/08/02	2011/08/24	2797880	2035826	USG9330QAB35	IEISE	D	100								
SCEXH	U	2007/01/22	2011/05/06	635768	485319	XS0095906177	DEFSX	D									
SCEXH	I	2007/01/26	2007/01/26	640878	489729	XS0137994660	DEFSX	N	100								
SCEXH	U	2011/06/21	2012/02/03	3963691	489729	XS0137994660	IEISE	S									
SCEXH	I	2007/01/20	2007/01/20	634346	484144	XS0137996954	DEFSX	N									
SCEXH	U	2008/01/14	2014/11/18	846340	484144	XS0137996954	IEISE	D				2014/11/17					
SCEXH	U	2005/02/22	2013/12/11	327468	226087	XS0145222120	LULSE	N			2002/04/10						
SCEXH	U	2007/01/17	2015/08/05	631133	481508	XS0150230158	DEFSX	D				2015/07/16					
SCEXH	U	2008/01/29	2015/08/05	854185	481508	XS0150230158	IEISE	D				2015/07/16					
SCEXH	U	2005/11/11	2011/03/09	425315	300876	XS0188618101	IEISE	R									
SCEXH	U	2005/11/11	2011/03/09	425323	300882	XS0188618523	IEISE	R									
SCEXH	U	2010/08/04	2011/04/30	2800527	487696	XS0196449366	IEISE	R	100								
SCEXH	I	2004/10/22	2004/10/22	280723	190565	XS0202219092	LULSE	N			2004/10/20						
SCEXH	U	2008/01/24	2011/12/08	852325	479718	XS0204563703	IEISE	R									
SCEXH	I	2007/01/11	2007/01/11	624536	475992	XS0204594682	DEFSX	N									
SCEXH	U	2008/01/24	2014/01/27	852407	475992	XS0204594682	IEISE		100								
SCEXH	I	2007/01/13	2007/01/13	628102	240544	XS0214987264	DEFSX	N									
SCEXH	I	2005/04/28	2005/04/28	347858	240544	XS0214987264	LULSE	N			2005/04/27						
SCEXH	I	2006/02/16	2006/02/16	466990	336463	XS0216228857	IEISE	N	100								
SCEXH	I	2005/04/13	2005/04/13	342722	236889	XS0216426063	LULSE	N			2005/04/12						
SCEXH	I	2005/04/13	2005/04/13	342727	236894	XS0216427384	LULSE	N			2005/04/12						
SCEXH	U	2010/08/17	2011/05/02	2862303	479765	XS0220312440	IEISE	R									
SCEXH	U	2006/08/17	2013/12/12	542197	401527	XS0223493841	LULSE	N			2005/07/18						
SCEXH	U	2006/08/17	2013/12/12	542199	401529	XS0223494575	LULSE		100		2005/07/18						
SCEXH	U	2006/08/17	2013/12/12	542213	401542	XS0223497248	LULSE	N			2005/07/18						
SCEXH	U	2006/05/02	2011/12/27	500022	362124	XS0225547438	IEISE	R									
SCEXH	I	2006/01/26	2006/01/26	458788	329197	XS0226406238	IEISE	N									
SCEXH	U	2009/05/08	2011/06/18	1903944	485414	XS0229693071	IEISE	R									
SCEXH	U	2005/10/01	2011/06/18	408915	288587	XS0229693824	IEISE	R	100								
SCEXH	U	2006/04/25	2012/02/22	495139	358841	XS0235146569	IEISE	R									
SCEXH	I	2006/02/16	2006/02/16	466958	336432	XS0235683736	IEISE	N	100								
SCEXH	U	2005/12/06	2015/07/07	438198	309954	XS0235684114	IEISE		100		2005/12/06						
SCEXH	I	2006/05/02	2006/05/02	497817	360988	XS0236228317	IEISE	N									
SCEXH	I	2009/03/18	2009/03/18	1807468	481631	XS0237059158	IEISE	N	100								
SCEXH	I	2009/06/15	2009/06/15	1961332	478872	XS0237518955	IEISE	N	100								
SCEXH	I	2006/01/21	2006/01/21	457670	328170	XS0241540763	IEISE	N	100								
SCEXH	I	2006/02/03	2006/02/03	463237	332587	XS0241544161	IEISE	N	100								
SCEXH	I	2008/05/15	2008/05/15	922701	843115	XS0243997706	IEISE	N	100								
SCEXH	I	2012/09/19	2012/09/19	5579153	490447	XS0244000187	IEISE	N									
SCEXH	I	2006/07/06	2006/07/06	525442	384548	XS0244742911	IEISE	N	100								
SCEXH	I	2006/07/06	2006/07/06	525456	384561	XS0244743489	IEISE	N	100								
SCEXH	I	2006/04/22	2006/04/22	494139	357710	XS0247402422	IEISE	N									
SCEXH	I	2006/04/22	2006/04/22	494143	357715	XS0247409948	IEISE	N									
SCEXH	U	2006/05/11	2015/08/03	503187	365009	XS0247515207	IEISE	D	100			2015/07/14					
SCEXH	U	2006/05/15	2009/06/10	504188	365974	XS0247636334	IEISE		100								
SCEXH	I	2009/06/17	2009/06/17	1962729	357559	XS0247638975	IEISE	N	100								
SCEXH	I	2006/05/10	2006/05/10	502713	364553	XS0248144163	IEISE	N	100								
SCEXH	I	2006/05/10	2006/05/10	502723	364563	XS0248144759	IEISE	N	100								
SCEXH	U	2006/05/04	2013/06/13	501214	363178	XS0251292883	IEISE	D									
SCEXH	I	2013/06/13	2013/06/13	5801381	363178	XS0251292883	XSBND	N									
SCEXH	U	2006/10/04	2011/03/10	561260	419838	XS0251752639	IEISE	R									
SCEXH	I	2006/07/06	2006/07/06	525466	384572	XS0253796329	IEISE	N	100								
SCEXH	I	2009/06/17	2009/06/17	1963113	491020	XS0254054553	IEISE	N	100								
SCEXH	I	2008/02/07	2008/02/07	862364	484139	XS0254058034	XSBND	N									
SCEXH	U	2006/07/17	2011/06/10	529144	388182	XS0256419903	IEISE	R									
SCEXH	I	2006/11/02	2006/11/02	570458	428392	XS0256541532	IEISE	N									
SCEXH	U	2006/10/09	2007/12/29	563085	421644	XS0259368925	IEISE	N									
SCEXH	I	2006/08/17	2006/08/17	541909	401271	XS0260354732	IEISE	N	100								
SCEXH	I	2009/08/24	2009/08/24	2088029	552958	XS0261227325	IEISE	N	100								
SCEXH	I	2006/08/31	2006/08/31	546936	405753	XS0261629801	IEISE	N									
SCEXH	I	2006/10/09	2006/10/09	563110	421668	XS0262684862	IEISE	N									
SCEXH	I	2006/10/02	2006/10/02	560066	418689	XS0268029468	IEISE	N	100								
SCEXH	I	2013/01/09	2013/01/09	5682991	439931	XS0268642161	IEISE	N									
SCEXH	U	2006/12/16	2011/02/24	598275	453369	XS0268819868	IEISE	S									
SCEXH	U	2006/12/14	2012/02/03	596470	451640	XS0269248984	IEISE	S									
SCEXH	I	2007/01/02	2007/01/02	613710	466701	XS0269581996	IEISE	N	100								
SCEXH	U	2007/01/23	2014/12/05	637650	486954	XS0272301648	IEISE	R	100								
SCEXH	U	2007/01/23	2014/12/05	637641	486943	XS0272302299	IEISE	R									
SCEXH	I	2007/01/23	2007/01/23	637406	486736	XS0272582395	IEISE	N									
SCEXH	I	2007/03/05	2007/03/05	689488	529854	XS0273475763	IEISE	N									
SCEXH	U	2007/01/23	2013/12/12	637685	486993	XS0273893502	LULSE	N	100		2006/11/22						
SCEXH	U	2007/01/08	2013/12/12	620825	472748	XS0273894732	LULSE	N	100		2006/11/22						
SCEXH	I	2006/12/08	2006/12/08	591162	446549	XS0274446441	IEISE	N	100								
SCEXH	U	2008/06/18	2011/02/25	1137386	568361	XS0277024658	IEISE	S	100								
SCEXH	U	2007/04/02	2011/07/29	701876	533761	XS0277789094	IEISE	R									
SCEXH	U	2007/02/15	2008/09/03	681394	524385	XS0278170765	IEISE		100								
SCEXH	U	2007/02/15	2008/09/03	681396	524394	XS0278172977	IEISE		100								
SCEXH	U	2007/02/02	2011/02/25	651618	498872	XS0278469803	IEISE	S									
SCEXH	I	2007/01/17	2007/01/17	631041	481448	XS0279707961	IEISE	N	100								
SCEXH	I	2009/05/23	2009/05/23	1917528	1436899	XS0282504280	IEISE	N	100								
SCEXH	I	2009/05/25	2009/05/25	1918151	1437292	XS0282509164	IEISE	N	100								
SCEXH	I	2007/03/23	2007/03/23	697864	562956	XS0287420888	IEISE	N									
SCEXH	I	2007/07/13	2007/07/13	741022	621133	XS0289322439	IEISE	N	100								
SCEXH	I	2009/08/11	2009/08/11	2080622	1540419	XS0290091049	XSBND	N									
SCEXH	I	2009/08/11	2009/08/11	2080643	1540455	XS0290092443	XSBND	N									
SCEXH	I	2014/03/08	2014/03/08	6007072	581568	XS0290390110	IEISE	N	100								
SCEXH	U	2007/04/09	2013/05/23	703390	570591	XS0291367182	IEISE	R	100								
SCEXH	I	2007/05/23	2007/05/23	718907	561082	XS0291724473	IEISE	N	100								
SCEXH	U	2007/05/10	2011/05/02	714096	582686	XS0292636395	IEISE	R									
SCEXH	I	2014/03/22	2014/03/22	6019604	574757	XS0292715009	IEISE	N									
SCEXH	I	2008/09/10	2008/09/10	1448007	585326	XS0292918884	IEISE	N	100								
SCEXH	U	2007/06/12	2013/12/14	724718	589450	XS0294336820	IEISE	R	100								
SCEXH	U	2007/06/12	2013/12/14	724719	589453	XS0294337984	IEISE	R	100								
SCEXH	U	2009/09/03	2011/02/24	2095928	596931	XS0294790547	IEISE	S									
SCEXH	I	2007/12/28	2007/12/28	837868	591314	XS0296313017	IEISE	N	100								
SCEXH	U	2007/11/16	2011/07/08	812605	593196	XS0297939307	IEISE	R									
SCEXH	U	2007/11/16	2011/07/08	812615	593195	XS0297940149	IEISE	R									
SCEXH	I	2010/08/26	2010/08/26	2871359	593644	XS0298497495	IEISE	N									
SCEXH	U	2007/11/16	2011/07/08	812612	593208	XS0298609719	IEISE	R									
SCEXH	I	2007/08/27	2007/08/27	768283	597045	XS0299446442	XSBND	N									
SCEXH	I	2010/03/13	2010/03/13	2495036	1163135	XS0304541625	XSBND	N									
SCEXH	U	2007/09/12	2011/07/02	777167	602535	XS0305646183	IEISE	N	100								
SCEXH	I	2007/10/12	2007/10/12	797303	636802	XS0308771012	IEISE	N									
SCEXH	I	2007/08/14	2007/08/14	757154	643842	XS0309841376	IEISE	N									
SCEXH	I	2011/06/25	2011/06/25	3973244	641946	XS0311179922	IEISE	N									
SCEXH	U	2007/10/09	2012/12/11	792291	636318	XS0311203813	IEISE	S									
SCEXH	U	2007/10/29	2011/05/30	804877	630103	XS0313392432	IEISE	R									
SCEXH	I	2009/02/13	2009/02/13	1756559	712497	XS0322031245	IEISE	N									
SCEXH	I	2009/09/08	2009/09/08	2134778	712505	XS0322039149	IEISE	N									
SCEXH	U	2011/11/07	2013/12/13	4618702	736146	XS0331163906	LULSE	N			2007/12/06						
SCEXH	I	2013/09/30	2013/09/30	5885261	745632	XS0338507196	XSBND	N									
SCEXH	I	2008/05/31	2008/05/31	1131542	844122	XS0364968866	LULSE	N			2008/05/29						
SCEXH	I	2014/08/12	2014/08/12	6134443	4326116	XS0941553041	IEISE	N	1								
SCEXH	I	2013/10/04	2013/10/04	5888417	4120684	XS0972510530	IEISE	N			2013/09/30						
SCEXH	I	2014/06/07	2014/06/07	6084566	4283980	XS1067654217	IEISE	N			2014/06/05						
SCEXH	U	2014/06/30	2014/07/01	6101383	4295411	XS1075043890	IEISE				2014/06/26						
EDI_ENDOFFILE
